<?xml version="1.0" encoding="utf-8"?>
<!-- Generator: Adobe Illustrator 16.0.0, SVG Export Plug-In . SVG Version: 6.00 Build 0)  -->
<!DOCTYPE svg PUBLIC "-//W3C//DTD SVG 1.1//EN" "http://www.w3.org/Graphics/SVG/1.1/DTD/svg11.dtd">
<svg version="1.1" id="Layer_1" xmlns="http://www.w3.org/2000/svg" xmlns:xlink="http://www.w3.org/1999/xlink" x="0px" y="0px"
	 width="145px" height="68px" viewBox="0 0 145 68" enable-background="new 0 0 145 68" xml:space="preserve">
<g>
	<g>
		<path d="M40.555,14.566c-0.22-1.468,0.22-2.937-0.22-4.406c-0.294-0.954-0.881-1.762-1.175-2.717
			c-0.955-2.57-3.23-3.672-5.581-4.039c-1.689-0.22-3.598-0.955-5.287,0.294c-0.147,0.073-0.293,0-0.44,0
			c-2.056,0.293-3.818,1.321-5.507,2.276c-0.881,0.44-1.836,0.955-2.644,1.542C18.6,8.397,17.939,9.719,16.47,10.16
			c-0.294,0.073-0.294,0.441-0.367,0.661c0,0.367-0.147,0.661-0.367,0.808c-0.808,0.44-1.175,1.321-1.615,2.055
			c-1.983,3.011-2.644,6.316-2.056,9.914c0.22,1.102,1.469,1.836,2.497,1.469c1.028-0.294,1.322-1.028,0.734-1.909
			c-1.028-1.542-0.955-3.084,0.073-4.626c0.074-0.221,0.22-0.439,0.147-0.588c0-1.468,1.102-2.276,1.836-3.229
			c0.881-1.103,1.762-2.203,2.937-3.084c1.102-0.956,2.129-2.057,3.525-2.497c0.146,0,0.293-0.073,0.367-0.221
			c0.587-1.101,2.056-0.807,2.79-1.615c2.203-0.146,4.333-0.808,6.462,0.44c1.836,0.955,3.011,3.01,2.35,4.993
			c-0.589,1.762-1.469,3.377-2.938,4.626c-0.293,0.22-0.587,0.44-0.734,0.881c-0.294,0.881-0.881,1.396-1.616,1.835
			c-0.441,0.368-0.807,0.735-1.101,1.249c-0.515,0.807-1.175,1.396-1.983,1.983c-0.294,0.22-0.661,0.367-0.955,0.734
			c-1.175,1.836-3.231,2.791-4.479,4.553c-0.147,0.146-0.294,0.221-0.367,0.294c-0.808,0.514-1.469,1.175-2.056,1.909
			c-1.175,1.469-2.864,2.424-3.892,4.039c-0.147,0.294-0.441,0.441-0.661,0.588c-0.22,0.221-0.514,0.439-0.661,0.661
			c-1.175,1.981-3.158,3.377-4.333,5.358c-0.367,0.588-1.175,0.955-1.395,1.543c-0.881,1.982-2.57,3.305-3.452,5.215
			c-0.734,1.468-1.762,2.788-2.35,4.331c-0.367,0.882-0.587,1.982-1.102,2.645c-0.514,0.732-0.661,1.176-0.44,1.982
			c0.073,0.22,0,0.514-0.073,0.732c-0.514,1.469,0.073,2.645,0.734,3.818c0.661,1.176,1.836,1.471,3.011,1.543
			c0.441,0.072,0.955-0.072,1.028-0.514c0.367-1.102,1.395-1.396,2.203-2.057c1.028-0.734,2.203-0.955,3.451-0.955
			c0.735,0,1.542-0.293,2.203,0.293c1.175,1.25,2.791,1.764,4.112,2.719c1.028,0.66,2.056,1.32,3.378,1.027
			c0.293,0,0.587,0,0.808,0.146c0.955,0.439,1.762,0.146,2.644-0.295c0.293-0.145,0.587-0.293,0.955-0.366
			c1.248-0.146,2.129-0.882,2.937-1.763c1.395-1.469,1.542-3.23,1.689-4.994c0.073-0.732-0.514-1.247-1.322-1.247
			c-0.734,0-0.955,0.222-0.955,1.175c0,1.688-0.587,3.012-2.129,3.965c-0.661,0.368-1.395,0-2.056,0.295
			c-0.734,0.293-1.395,0-1.982-0.441c-1.689-1.248-3.452-2.422-5.14-3.598c-0.294-0.221-0.661-0.588-0.955-0.515
			c-0.955,0.294-1.836,0-2.717-0.073c-1.248-0.072-2.35,0.367-3.524,0.439c-0.22-1.688,1.028-2.717,1.248-4.109
			c1.175-0.662,0.955-2.277,2.129-2.865c0.588-1.763,1.983-3.011,3.011-4.405c2.13-2.791,4.406-5.434,6.902-7.855
			c2.57-2.57,4.994-5.288,7.49-8.005c1.028-1.028,2.056-2.129,3.011-3.305c1.469-1.762,3.011-3.451,4.332-5.287
			c0.44-0.588,0.514-1.395,1.101-1.836C40.115,17.724,39.527,15.815,40.555,14.566z M23.813,6.782V6.636l0.073,0.073
			C23.813,6.782,23.813,6.782,23.813,6.782z M24.769,6.489c0.146-0.367,0.367-0.221,0.587-0.146
			C25.208,6.636,24.988,6.562,24.769,6.489z M32.479,4.873V4.8h0.073C32.479,4.873,32.479,4.873,32.479,4.873z M33.727,4.873V4.8
			h0.073C33.727,4.873,33.727,4.873,33.727,4.873z M34.754,6.122c-0.073,0-0.073-0.074-0.073-0.147c0,0,0.073,0,0.147,0
			c0,0,0,0.074,0.073,0.074C34.829,6.122,34.754,6.122,34.754,6.122z M35.635,6.269c0,0-0.073,0-0.073-0.073
			c0.073-0.146,0.146-0.221,0.293-0.073C35.783,6.195,35.709,6.269,35.635,6.269z M21.61,61.562c0.073,0.146,0.147,0.295,0.22,0.516
			c-0.293,0-0.514,0.072-0.734,0.072c-0.074-0.146-0.074-0.221-0.074-0.293C21.169,61.708,21.391,61.636,21.61,61.562z
			 M17.058,60.239v-0.221c0,0.074,0.073,0.074,0.073,0.147C17.13,60.167,17.058,60.167,17.058,60.239z M17.058,58.698
			c0.073,0.072,0.073,0.146,0.073,0.221c-0.073,0.072-0.22,0.072-0.293,0.072c-0.073,0-0.073-0.072-0.073-0.146
			C16.837,58.771,16.984,58.698,17.058,58.698z M15.516,57.67v0.073l-0.073-0.073C15.516,57.67,15.516,57.67,15.516,57.67z
			 M15.001,58.771c0.074,0,0.074,0.074,0.147,0.074C15.076,58.845,15.001,58.845,15.001,58.771c-0.146-0.072-0.22-0.219-0.293-0.365
			C14.855,58.552,14.928,58.624,15.001,58.771z M12.873,57.597c-0.147,0.367-0.147,0.367-0.955,0.44
			C12.432,57.817,12.651,57.743,12.873,57.597z M16.396,36.596v0.221c-0.073-0.074-0.22-0.074-0.293-0.146
			C16.176,36.669,16.323,36.596,16.396,36.596z M14.562,38.211c0-0.072,0.22,0,0.587,0c-0.293,0.221-0.367,0.295-0.587,0.588
			C14.562,38.432,14.487,38.283,14.562,38.211z M9.201,48.124H8.613C8.906,47.831,8.906,47.831,9.201,48.124z M7.438,47.391
			c0.146,0,0.367,0,0.661-0.074c-0.147,0.295-0.22,0.516-0.367,0.809c0.147,0.367,0.293,0.733,0.441,1.103
			c-0.294,0.293-0.294,0.221-1.175-0.589C7.145,48.197,7.292,47.831,7.438,47.391z M6.777,50.548
			c-0.147,0.073-0.294,0.146-0.44,0.146c-0.147,0-0.367,0-0.587-0.073C6.117,50.106,6.411,50.548,6.777,50.548z M3.84,61.121
			c-0.221-0.22-0.147-0.44,0.073-0.661c0.22,0.074,0.367,0.146,0.587,0.221C4.427,61.121,4.208,61.269,3.84,61.121z M4.208,54.513
			c0.22,0,0.44,0,0.587-0.074c0,0,0.073,0,0.073-0.072c-0.073-0.146-0.147-0.293-0.22-0.439C5.162,54,5.015,54.22,4.868,54.366
			c0,0.072,0,0.072,0,0.072H4.794c-0.074,0.147-0.147,0.221-0.221,0.221C4.501,54.733,4.427,54.586,4.208,54.513z M6.043,60.313
			c-0.22-0.367-0.367-0.588-0.514-0.809c0.146-0.146,0.293-0.294,0.367-0.367C6.411,59.14,6.483,59.286,6.043,60.313z M5.235,56.423
			c-0.074,0.072-0.294,0.072-0.367,0.145c-0.073,0.074-0.073,0.074-0.073,0.074c-0.074,0-0.074,0.074-0.147,0.074
			c0.073,0,0-0.074,0.073-0.074c0,0,0,0,0.074,0c0-0.074,0-0.074,0-0.074s0,0,0.073,0v-0.881c0.367-0.439,0.734-0.953,1.102-1.469
			c0.293,0.146,0.44,0.221,0.734,0.367C6.189,55.247,5.675,55.835,5.235,56.423z M6.117,52.677c0,0,0-0.074,0.073-0.074l0.073,0.074
			c0,0.073-0.073,0.073-0.073,0.146C6.117,52.75,6.117,52.75,6.117,52.677z M6.777,52.017C6.63,52.089,6.411,52.163,6.19,52.31
			c-0.293-0.072-0.587-0.221-0.881-0.367c0-0.145,0-0.293,0-0.293c0.441-0.44,0.955-0.588,1.616-0.44
			c0.22-0.222,0.44-0.515,0.661-0.733c0.074,0.146,0.22,0.146,0.22,0.221c0.147,0.588,0.368,1.102-0.367,1.541
			C7.217,52.163,6.998,52.089,6.777,52.017z M8.247,58.405c-0.073-0.074-0.073-0.074-0.073-0.074c0-0.074,0.073-0.074,0.073-0.074
			c0.073,0,0.073,0,0.147,0C8.319,58.331,8.247,58.331,8.247,58.405z M7.659,53.925c0.146-0.221,0.293-0.367,0.661-0.293
			c0.074,0.146,0.147,0.367,0.147,0.514C8.247,54.366,8.247,54.366,7.659,53.925z M9.42,49.446c-0.514,0-0.881-0.146-0.808-0.734
			c0.146,0,0.293-0.146,0.367-0.146c0.367,0.072,0.661,0.219,1.028,0.366C9.789,49.226,9.567,49.372,9.42,49.446z M10.155,49.666
			c0.22-0.22,0.367-0.22,0.661-0.073C10.522,49.888,10.375,49.813,10.155,49.666z M10.89,49.079c-0.147,0-0.22,0-0.367-0.074
			c0.073-0.146,0.147-0.293,0.367-0.588V49.079z M11.184,47.169c-0.147,0-0.22,0.073-0.293,0.073
			c-0.514-0.293-1.249,0.074-1.689-0.66c0.44-0.146,0.881-0.294,1.248-0.439c0.294,0.221,0.587,0.367,0.881,0.586
			C11.256,46.876,11.256,47.021,11.184,47.169z M10.743,43.352c0.147-0.146,0.293-0.367,0.44-0.515
			c0.147,0.073,0.22,0.147,0.294,0.222C11.403,43.426,11.256,43.645,10.743,43.352z M11.844,43.792c-0.074,0-0.074,0-0.074-0.073
			c0.074,0,0.147,0,0.147,0c0.147,0,0.147,0.073,0.073,0.146C11.917,43.865,11.844,43.865,11.844,43.792z M11.917,45.334v-0.072
			c0,0,0.073,0,0.147,0.072C11.99,45.334,11.99,45.334,11.917,45.334z M12.285,47.242c-0.073,0-0.073,0-0.147,0c0,0,0-0.073,0-0.146
			c0.074,0,0.074,0,0.147,0.073V47.242z M12.432,41.956c0.073-0.44,0.073-0.44,0.734,0H12.432z M13.313,45.262
			c0.221-0.074,0.367-0.074,0.661-0.074C13.679,45.555,13.534,45.555,13.313,45.262z M13.313,41.367v-0.221
			c0.074,0.074,0.074,0.147,0.147,0.147C13.386,41.295,13.386,41.367,13.313,41.367z M13.974,44.747
			c-0.367-0.296-0.44-0.44-0.147-0.662C14.121,44.232,14.121,44.451,13.974,44.747z M13.9,40.486
			c-0.221-0.293-0.441-0.514-0.734-0.807c0.44-0.295,0.881-0.516,1.248-0.734C14.268,39.975,14.268,39.975,13.9,40.486z
			 M15.295,43.57c-0.294-0.072-0.514-0.145-0.734-0.293c-0.147-0.44-0.074-0.809,0.367-1.248c0.22,0.367,0.44,0.66,0.661,0.955
			C15.516,43.204,15.442,43.352,15.295,43.57z M17.058,41.223c-0.22-0.146-0.22-0.146-0.293-0.146
			c0.073-0.295,0.146-0.441,0.514-0.367C17.205,40.854,17.13,41.001,17.058,41.223z M16.104,40.193c0-0.367,0.073-0.514,0.073-0.734
			c-0.22-0.146-0.367-0.294-0.587-0.439c-0.146-0.293,0.074-0.44,0.367-0.588c0.44,0.295,0.881,0.588,1.396,0.881
			C16.911,39.605,16.618,39.826,16.104,40.193z M17.939,35.641c0.147-0.293,0.293-0.439,0.587-0.22
			C18.379,35.715,18.232,35.936,17.939,35.641z M19.041,37.917c0,0.073-0.074,0-0.147,0v-0.073c0,0,0.073-0.072,0.147-0.072
			C19.188,37.844,19.188,37.917,19.041,37.917z M21.831,32.336c-0.22,0.295-0.44,0.588-0.881,0.295
			C21.169,32.41,21.391,32.043,21.831,32.336z M20.802,34.1v0.809c-0.22-0.074-0.294-0.074-0.367-0.146
			C20.508,34.611,20.583,34.467,20.802,34.1z M20.436,37.477c-0.073,0.074-0.147,0.147-0.294,0.221
			c-0.293-0.221-0.44-0.366-0.367-0.66c0.294-0.221,0.588-0.072,0.881,0.146C20.583,37.33,20.508,37.402,20.436,37.477z
			 M20.436,36.375c0.073-0.293,0.147-0.587,0.147-0.809c0.073-0.072,0.147-0.146,0.147-0.146c0.293,0.22,0.587,0.44,0.808,0.661
			C21.096,36.375,21.096,36.375,20.436,36.375z M21.978,35.421H21.61v-0.073h0.367V35.421z M24.622,29.693c0,0,0,0,0,0.073
			c0,0,0,0-0.073,0c-0.074,0.073-0.147,0.22-0.441,0h0.441C24.547,29.693,24.622,29.693,24.622,29.693
			c-0.147-0.367-0.44-0.294-0.661-0.367c-0.22-0.146-0.367-0.294-0.073-0.588c0.44,0.147,0.881,0.441,1.542,0.808
			C24.988,29.62,24.769,29.693,24.622,29.693z M28.367,28.297c-0.074-0.073-0.147-0.219-0.221-0.293
			c0.147,0,0.221-0.074,0.294-0.074s0.073,0.146,0.147,0.22C28.512,28.224,28.439,28.297,28.367,28.297z M38.939,10.601
			c-0.293,0-0.587-0.074-0.881-0.146c-0.074-0.147-0.074-0.294-0.147-0.44c0.587-0.074,0.881,0.146,1.248,0.44
			C39.013,10.601,38.939,10.674,38.939,10.601z M33.14,22.644c-0.074,0-0.074-0.147-0.074-0.22c0.147,0,0.22-0.073,0.367-0.073
			C33.505,22.644,33.286,22.717,33.14,22.644z M34.607,21.028c-0.44,0-0.808-0.073-1.175-0.073c-0.22-0.368-0.367-0.734-0.587-1.102
			c0.147-0.22,0.367-0.44,0.66-0.734c0.294,0.147,0.515,0.294,0.735,0.367c0.22,0.074,0.514,0,0.734,0.074
			c0.147,0.22,0.22,0.513,0.367,0.808C35.048,20.661,34.829,20.808,34.607,21.028z M36.002,19.486
			c-0.587,0.074-0.661-0.22-0.514-0.735c0.22-0.22,0.587-0.44,0.955-0.734c0.073,0.22,0.073,0.293,0.073,0.367
			C36.371,18.751,36.149,19.119,36.002,19.486z M36.517,7.076c-0.073,0.147-0.22,0.147-0.44,0.367
			c0.074-0.367,0.074-0.587,0.147-0.808c0.147,0,0.293-0.073,0.44-0.073C36.811,6.856,36.59,6.93,36.517,7.076z M37.471,6.93
			c0.22,0.22,0.514,0.367,0.22,0.734C37.471,7.517,37.251,7.296,37.471,6.93z M37.544,9.353c-0.293-0.661,0.074-0.882,0.221-1.469
			c0.22,0.221,0.367,0.368,0.587,0.587C37.985,8.839,37.838,9.059,37.544,9.353z M38.06,17.283c-0.147-0.367-0.147-0.661,0-0.955
			C38.425,16.77,38.425,16.77,38.06,17.283z M38.06,15.374c-0.147-0.293-0.221-0.514-0.368-0.661
			c0.44-0.441,0.661-0.147,1.028,0.073C38.5,14.933,38.353,15.154,38.06,15.374z M72.13,17.357c0-0.074,0-0.147,0-0.147
			c0.294-2.57,0.587-5.141-0.147-7.71c-0.367-1.395-0.734-2.791-1.395-4.039c-0.881-1.615-2.276-2.716-4.039-3.083
			c-1.395-0.221-2.717,0.587-4.112,0.44c-0.074,0-0.22,0.073-0.294,0.146c-1.542,0.734-3.01,1.542-4.552,2.497
			c-1.763,1.029-2.938,2.791-4.7,3.892c-0.955,1.909-3.084,3.011-3.892,5.14c-0.073,0.294-0.514,0.588-0.734,0.881
			c-0.293,0.294-0.587,0.514-0.661,0.881c-0.22,1.175-1.395,1.909-1.469,3.157c-1.249,1.175-1.395,2.864-2.203,4.333
			c-0.441,0.661-0.514,1.542-1.028,2.276c-0.367,0.514-0.22,1.249-0.514,1.909c-0.955,2.276-1.396,4.773-2.13,7.123
			c-0.367,1.248-0.514,2.643-0.881,3.893c-0.441,1.541-0.441,3.084-0.881,4.699c-0.22,0.881,0.073,2.055-0.147,3.156
			c-0.147,0.883-0.073,1.836-0.073,2.718c0,1.248,0.22,2.35,0.44,3.451c0.661,3.012,1.396,5.875,3.892,8.15
			c1.395,1.248,2.79,1.764,4.846,1.982c0.587,0.44,1.395-0.367,2.203-0.44c1.469-0.146,2.937-0.808,4.112-1.614
			c1.249-0.882,2.57-1.689,3.745-2.791c1.909-1.764,3.378-3.893,4.553-6.095c1.102-1.981,2.203-4.111,2.864-6.314
			c0.734-2.424,1.909-4.627,2.57-7.051c0.44-1.688,1.101-3.305,1.542-4.992c0.661-2.423,1.175-4.774,1.763-7.197
			c0.367-1.542,0.807-3.085,0.881-4.626C71.836,20.441,72.865,18.972,72.13,17.357z M39.895,48.785l0.073-0.073l0.074,0.073
			C39.895,48.785,39.895,48.785,39.895,48.785z M41.951,56.054c0,0.074-0.073,0.074-0.147,0.148c-0.073-0.074-0.22-0.221-0.44-0.441
			h0.734C42.024,55.907,42.024,55.981,41.951,56.054z M63.465,3.992c0.294,0.147,0.441,0.22,0.661,0.367
			c-0.22,0.22-0.367,0.441-0.661,0.734V3.992z M60.162,5.167c0.22-0.22,0.44-0.514,0.955-0.44c0,0.367,0,0.734,0.073,1.102
			c-0.367,0.146-0.661,0.073-1.028-0.147V5.167z M57.225,12.583h0.074v0.367h-0.074V12.583z M56.417,12.73
			c0,0.661-0.293,0.587-0.661,0.587C55.755,12.73,56.049,12.804,56.417,12.73z M53.919,11.849c0.073,0.294,0.147,0.367,0.22,0.441
			c-0.22,0.22-0.367,0.22-0.661-0.074C53.552,12.143,53.7,12.069,53.919,11.849z M53.552,19.56c0.073,0.073,0.147,0.073,0.22,0.147
			c-0.073,0.073-0.147,0.146-0.44,0.514C53.479,19.78,53.479,19.707,53.552,19.56z M52.965,13.611v0.073
			c0,0.074-0.073,0.074-0.073,0.074c0-0.074-0.074-0.074-0.074-0.147C52.893,13.611,52.893,13.611,52.965,13.611z M52.671,16.035
			c0,0.074,0,0.147,0,0.147c-0.074,0-0.074,0.074-0.074,0c-0.073,0-0.073-0.073-0.073-0.073
			C52.599,16.108,52.671,16.108,52.671,16.035z M52.893,19.927c-0.074,0.294-0.147,0.514-0.294,0.733l-0.293-0.293
			C52.231,19.853,52.524,19.927,52.893,19.927z M51.938,18.165c-0.221,0.293-0.367,0.22-0.587,0.073
			C51.497,17.944,51.716,18.018,51.938,18.165z M49.808,20.587h0.367c0,0.074,0,0.074,0,0.147h-0.367
			C49.808,20.661,49.808,20.587,49.808,20.587z M48.707,17.797h0.514c0,0.073,0,0.073,0,0.146h-0.514
			C48.707,17.87,48.707,17.87,48.707,17.797z M48.779,23.819c-0.367,0.073-0.367,0.073-0.441-0.367
			C48.486,23.598,48.632,23.672,48.779,23.819z M48.486,24.92h1.101c-0.073,0.146-0.073,0.293-0.147,0.293
			C49,25.286,48.56,25.36,48.192,25.36c0,0.073-0.074,0.073-0.074,0.073c0,0.146,0,0.293-0.073,0.514
			c-0.293-0.146-0.514-0.22-0.514-0.514c0,0-0.073,0-0.073-0.073l0.073,0.073c0.587,0,0.587,0,0.587,0s0,0,0-0.073c0,0,0,0,0.074,0
			C48.266,25.214,48.338,25.067,48.486,24.92z M49.587,33.219c-0.44-0.222-0.514-0.295-0.587-0.367
			c-0.073-0.074-0.073-0.221-0.147-0.369c0.074-0.073,0.147-0.073,0.221-0.146C49.22,32.557,49.294,32.777,49.587,33.219z
			 M47.678,34.688c0.367,0,0.734,0,1.102-0.074c0.073,0.734,0.073,0.734-0.734,1.322c-0.22-0.367-0.367-0.734-0.587-1.027
			C47.531,34.833,47.605,34.688,47.678,34.688z M46.943,33.805h0.514C47.384,33.951,47.237,34.174,46.943,33.805z M47.531,33.805
			c0,0,0-0.072,0.074-0.072v-0.588c0.147,0.221,0.22,0.367,0.367,0.514c-0.147,0-0.294,0.074-0.367,0.074c0,0.074,0,0.074,0,0.074
			h-0.074V33.805z M48.486,31.456c0.073,0,0.073-0.073,0.146-0.073c0,0,0,0.073,0.074,0.073c-0.074,0-0.074,0.074-0.147,0.074
			C48.56,31.529,48.56,31.456,48.486,31.456z M48.192,19.56v0.073h-0.074c0-0.073-0.073-0.147-0.073-0.147
			S48.119,19.486,48.192,19.56z M47.384,22.497c0.073,0.147,0.146,0.221,0.293,0.294c-0.147,0.146-0.22,0.293-0.367,0.44
			C46.871,22.864,47.09,22.717,47.384,22.497z M46.724,21.249h0.367v0.073h-0.367V21.249z M46.284,24.406
			c-0.367-0.073-0.588-0.146-0.588-0.587C46.136,23.819,46.284,24.039,46.284,24.406z M45.917,25.581
			c-0.073,0-0.073,0.074-0.073,0.074c-0.074,0-0.074-0.074-0.074-0.074c0-0.073,0-0.073,0.074-0.073
			C45.842,25.507,45.917,25.507,45.917,25.581z M45.329,50.327l0.073-0.074c0.074,0,0.074,0,0.147,0.074
			c-0.073,0-0.147,0.072-0.22,0.072V50.327z M44.961,25.948c0,0.221,0,0.44-0.074,0.734c-0.22-0.073-0.367-0.073-0.514-0.073
			C44.3,26.168,44.594,26.095,44.961,25.948z M43.345,45.113c-0.146-0.073-0.22-0.221-0.367-0.295
			C43.345,44.674,43.419,44.747,43.345,45.113z M43.712,48.858h-0.367c0-0.073,0-0.073,0-0.146h0.367
			C43.712,48.785,43.712,48.785,43.712,48.858z M43.64,30.28v-0.073h0.073C43.64,30.28,43.64,30.28,43.64,30.28z M43.493,28.959
			c1.102-0.44,1.102-0.44,1.542-0.294c-0.22,0.587-0.734,0.44-1.175,0.514C43.787,29.179,43.64,29.032,43.493,28.959z M44.3,34.174
			c-0.514-0.074-0.441-0.295-0.367-0.589C44.447,33.658,44.375,33.879,44.3,34.174z M44.447,32.777
			c0.074-0.146,0.074-0.221,0.22-0.514c0.074,0.146,0.22,0.22,0.441,0.514H44.447z M45.329,54.806c0-0.072-0.074-0.072-0.074-0.146
			c0,0.074,0.074,0.074,0.147,0.146c0,0,0,0,0,0.074c0.074,0.146,0.147,0.367,0.294,0.588c-0.22,0-0.294,0-0.441-0.074
			c0.074-0.146,0.074-0.367,0.147-0.514L45.329,54.806z M45.548,56.423v0.072c-0.073,0-0.073,0-0.073,0L45.548,56.423z
			 M45.917,60.827c-0.073-0.072-0.147-0.146-0.147-0.221c0,0,0.074-0.072,0.147-0.072c0,0.072,0.073,0.146,0.147,0.221
			C45.989,60.755,45.917,60.827,45.917,60.827z M45.695,57.89c0,0,0,0-0.074,0c0,0,0-0.072-0.073-0.072
			C45.623,57.817,45.623,57.89,45.695,57.89c0.147,0.074,0.22,0.074,0.367,0.074C45.842,58.185,45.77,58.11,45.695,57.89z
			 M46.063,29.839c0.147-0.146,0.293-0.293,0.44-0.44c0.074-0.073,0.22-0.22,0.367-0.367c0.22,0.074,0.514,0.074,0.955,0.221
			c0.147,0.293,0.22,0.514,0.367,0.808c-0.367,0.22-0.44-0.221-0.661-0.221C47.09,29.546,46.65,30.28,46.063,29.839z M46.943,56.789
			c0.22,0.44,0.22,0.44-0.146,0.661C46.503,57.155,46.503,56.937,46.943,56.789z M47.312,59.286h-0.367v-0.074h0.367V59.286z
			 M47.237,56.054c-0.074,0-0.074,0.074-0.147,0.074c0.073,0,0.073-0.074,0.073-0.146c0.074,0,0.074,0,0.147,0
			C47.312,55.981,47.237,55.981,47.237,56.054z M47.678,49.446h-0.367v-0.074h0.367V49.446z M47.678,39.238
			c-0.147-0.073-0.22-0.221-0.367-0.293c0-0.367,0.147-0.514,0.587-0.514C48.119,38.727,47.898,38.945,47.678,39.238z
			 M48.045,37.035c0.073-0.146,0.147-0.221,0.22-0.439c0.073,0.221,0.147,0.367,0.147,0.588
			C48.266,37.109,48.119,37.035,48.045,37.035z M48.486,59.065c0.146-0.367,0.22-0.66,0.44-1.322C49,58.405,49,58.698,49.073,58.991
			C48.854,59.065,48.707,59.065,48.486,59.065z M51.351,59.8c-0.514-0.514-0.514-0.588,0.073-1.176
			C51.644,59.358,51.644,59.358,51.351,59.8z M65.301,41.223c-0.22-0.074-0.44-0.146-0.367-0.367c0-0.074,0.22-0.146,0.367-0.221
			V41.223z M69.121,16.035c-0.294,1.396-0.44,2.864-0.44,4.259c0.073,1.542-0.808,2.864-0.808,4.259c0,1.468-0.734,2.79-0.881,4.185
			c-0.22,1.616-0.955,3.011-1.322,4.553c-0.441,1.984-1.028,3.967-1.689,5.949c-0.587,1.688-1.175,3.305-1.762,4.92
			c-1.249,3.451-2.644,6.901-4.7,9.913c-0.881,1.248-1.762,2.423-3.157,3.084c-1.028,0.439-1.469,0.439-2.203-0.367
			c-0.955-1.102-1.909-2.131-2.056-3.745c0-0.659-0.44-1.321-0.661-1.981c-0.293-0.81-0.44-1.615-0.514-2.203
			c0.147-2.351,0.22-4.479,0.073-6.609c0-0.22,0-0.515,0.074-0.733c0.661-1.908,0.44-3.965,1.028-5.801
			c0.587-1.689,0.661-3.377,1.395-5.067c0.441-1.027,0.808-2.276,1.028-3.451c0.514-2.056,1.762-3.817,2.056-5.948
			c0.881-0.734,0.514-2.203,1.616-2.791c0.147-0.074,0.22-0.293,0.22-0.44c1.102-3.377,3.231-6.095,5.434-8.812
			c0.734-0.955,1.542-1.763,2.423-2.497c1.762-1.468,3.745-0.954,4.259,1.249c0.367,1.542,0.734,3.084,0.514,4.7
			C68.899,13.759,69.415,14.86,69.121,16.035z M104.733,9.5c-0.365-1.395-0.732-2.791-1.395-4.039
			c-0.882-1.615-2.276-2.716-4.04-3.083c-1.395-0.221-2.717,0.587-4.11,0.44c-0.074,0-0.222,0.073-0.294,0.146
			c-1.542,0.734-3.012,1.542-4.553,2.497c-1.764,1.029-2.938,2.791-4.7,3.892c-0.954,1.909-3.084,3.011-3.892,5.14
			c-0.074,0.294-0.515,0.588-0.733,0.881c-0.296,0.294-0.589,0.514-0.662,0.881c-0.22,1.175-1.396,1.909-1.47,3.157
			c-1.248,1.175-1.395,2.864-2.201,4.333c-0.439,0.661-0.516,1.542-1.028,2.276c-0.366,0.514-0.221,1.249-0.514,1.909
			c-0.955,2.276-1.396,4.773-2.13,7.123c-0.366,1.248-0.514,2.643-0.881,3.893c-0.44,1.541-0.44,3.084-0.882,4.699
			c-0.22,0.881,0.074,2.055-0.146,3.156c-0.146,0.883-0.073,1.836-0.073,2.718c0,1.248,0.22,2.35,0.44,3.451
			c0.661,3.012,1.396,5.875,3.893,8.15c1.396,1.248,2.79,1.764,4.847,1.982c0.588,0.44,1.396-0.367,2.203-0.44
			c1.469-0.146,2.938-0.808,4.111-1.614c1.248-0.882,2.568-1.689,3.745-2.791c1.907-1.764,3.377-3.893,4.553-6.095
			c1.103-1.981,2.203-4.111,2.863-6.314c0.733-2.424,1.909-4.627,2.569-7.051c0.44-1.688,1.103-3.305,1.543-4.992
			c0.66-2.423,1.175-4.774,1.763-7.197c0.367-1.542,0.809-3.085,0.881-4.626c0.146-1.542,1.175-3.011,0.439-4.626
			c0-0.074,0-0.147,0-0.147C105.175,14.64,105.468,12.069,104.733,9.5z M72.646,48.785l0.072-0.073l0.074,0.073
			C72.646,48.785,72.646,48.785,72.646,48.785z M74.701,56.054c0,0.074-0.072,0.074-0.146,0.148
			c-0.073-0.074-0.221-0.221-0.44-0.441h0.734C74.774,55.907,74.774,55.981,74.701,56.054z M96.215,3.992
			c0.295,0.147,0.441,0.22,0.662,0.367c-0.221,0.22-0.367,0.441-0.662,0.734V3.992z M92.912,5.167c0.221-0.22,0.44-0.514,0.955-0.44
			c0,0.367,0,0.734,0.073,1.102c-0.367,0.146-0.662,0.073-1.028-0.147V5.167z M89.975,12.583h0.072v0.367h-0.072V12.583z
			 M89.168,12.73c0,0.661-0.295,0.587-0.662,0.587C88.506,12.73,88.799,12.804,89.168,12.73z M86.67,11.849
			c0.072,0.294,0.146,0.367,0.221,0.441c-0.221,0.22-0.367,0.22-0.661-0.074C86.303,12.143,86.451,12.069,86.67,11.849z
			 M86.303,19.56c0.072,0.073,0.146,0.073,0.221,0.147c-0.072,0.073-0.146,0.146-0.439,0.514
			C86.229,19.78,86.229,19.707,86.303,19.56z M85.715,13.611v0.073c0,0.074-0.073,0.074-0.073,0.074
			c0-0.074-0.073-0.074-0.073-0.147C85.642,13.611,85.642,13.611,85.715,13.611z M85.422,16.035c0,0.074,0,0.147,0,0.147
			c-0.073,0-0.073,0.074-0.073,0c-0.074,0-0.074-0.073-0.074-0.073C85.349,16.108,85.422,16.108,85.422,16.035z M85.642,19.927
			c-0.073,0.294-0.146,0.514-0.293,0.733c-0.146-0.146-0.222-0.22-0.294-0.293C84.981,19.853,85.274,19.927,85.642,19.927z
			 M84.688,18.165c-0.221,0.293-0.367,0.22-0.587,0.073C84.248,17.944,84.467,18.018,84.688,18.165z M82.558,20.587h0.366
			c0,0.074,0,0.074,0,0.147h-0.366C82.558,20.661,82.558,20.587,82.558,20.587z M81.457,17.797h0.514c0,0.073,0,0.073,0,0.146
			h-0.514C81.457,17.87,81.457,17.87,81.457,17.797z M81.53,23.819c-0.366,0.073-0.366,0.073-0.44-0.367
			C81.236,23.598,81.383,23.672,81.53,23.819z M81.236,24.92h1.102c-0.072,0.146-0.072,0.293-0.146,0.293
			c-0.439,0.073-0.881,0.147-1.248,0.147c0,0.073-0.072,0.073-0.072,0.073c0,0.146,0,0.293-0.074,0.514
			c-0.293-0.146-0.514-0.22-0.514-0.514c0,0-0.074,0-0.074-0.073l0.074,0.073c0.588,0,0.588,0,0.588,0s0,0,0-0.073c0,0,0,0,0.072,0
			C81.017,25.214,81.088,25.067,81.236,24.92z M82.338,33.219c-0.44-0.222-0.516-0.295-0.588-0.367
			c-0.074-0.074-0.074-0.221-0.146-0.369c0.072-0.073,0.146-0.073,0.22-0.146C81.971,32.557,82.045,32.777,82.338,33.219z
			 M80.428,34.688c0.367,0,0.734,0,1.103-0.074c0.073,0.734,0.073,0.734-0.733,1.322c-0.221-0.367-0.367-0.734-0.588-1.027
			C80.283,34.833,80.354,34.688,80.428,34.688z M79.694,33.805h0.515C80.135,33.951,79.987,34.174,79.694,33.805z M80.283,33.805
			c0,0,0-0.072,0.071-0.072v-0.588c0.147,0.221,0.222,0.367,0.366,0.514c-0.145,0-0.293,0.074-0.366,0.074c0,0.074,0,0.074,0,0.074
			h-0.071V33.805z M81.236,31.456c0.073,0,0.073-0.073,0.146-0.073c0,0,0,0.073,0.072,0.073c-0.072,0-0.072,0.074-0.146,0.074
			C81.31,31.529,81.31,31.456,81.236,31.456z M80.942,19.56v0.073h-0.073c0-0.073-0.072-0.147-0.072-0.147
			S80.869,19.486,80.942,19.56z M80.135,22.497c0.072,0.147,0.146,0.221,0.293,0.294c-0.145,0.146-0.221,0.293-0.366,0.44
			C79.621,22.864,79.84,22.717,80.135,22.497z M79.474,21.249h0.366v0.073h-0.366V21.249z M79.033,24.406
			c-0.367-0.073-0.587-0.146-0.587-0.587C78.885,23.819,79.033,24.039,79.033,24.406z M78.666,25.581
			c-0.072,0-0.072,0.074-0.072,0.074c-0.073,0-0.073-0.074-0.073-0.074c0-0.073,0-0.073,0.073-0.073
			C78.592,25.507,78.666,25.507,78.666,25.581z M78.08,50.327l0.072-0.074c0.073,0,0.073,0,0.146,0.074
			c-0.073,0-0.146,0.072-0.221,0.072v-0.072H78.08z M77.711,25.948c0,0.221,0,0.44-0.074,0.734
			c-0.219-0.073-0.366-0.073-0.514-0.073C77.051,26.168,77.344,26.095,77.711,25.948z M76.096,45.113
			c-0.146-0.073-0.221-0.221-0.366-0.295C76.096,44.674,76.17,44.747,76.096,45.113z M76.463,48.858h-0.367c0-0.073,0-0.073,0-0.146
			h0.367C76.463,48.785,76.463,48.785,76.463,48.858z M76.39,30.28v-0.073h0.073C76.39,30.28,76.39,30.28,76.39,30.28z
			 M76.244,28.959c1.102-0.44,1.102-0.44,1.541-0.294c-0.221,0.587-0.734,0.44-1.175,0.514
			C76.537,29.179,76.39,29.032,76.244,28.959z M77.051,34.174c-0.516-0.074-0.44-0.295-0.367-0.589
			C77.197,33.658,77.125,33.879,77.051,34.174z M77.197,32.777c0.073-0.146,0.073-0.221,0.221-0.514
			c0.074,0.146,0.221,0.22,0.44,0.514H77.197z M78.08,54.806c0-0.072-0.074-0.072-0.074-0.146c0,0.074,0.074,0.074,0.146,0.146
			c0,0,0,0,0,0.074c0.073,0.146,0.146,0.367,0.294,0.588c-0.221,0-0.294,0-0.44-0.074c0.074-0.146,0.074-0.367,0.146-0.514
			L78.08,54.806z M78.299,56.423v0.072c-0.073,0-0.073,0-0.073,0L78.299,56.423z M78.666,60.827
			c-0.072-0.072-0.146-0.146-0.146-0.221c0,0,0.073-0.072,0.146-0.072c0,0.072,0.073,0.146,0.147,0.221
			C78.739,60.755,78.666,60.827,78.666,60.827z M78.446,57.89c0,0,0,0-0.073,0c0,0,0-0.072-0.074-0.072
			C78.373,57.817,78.373,57.89,78.446,57.89c0.146,0.074,0.22,0.074,0.367,0.074C78.592,58.185,78.52,58.11,78.446,57.89z
			 M78.813,29.839c0.146-0.146,0.293-0.293,0.438-0.44c0.074-0.073,0.222-0.22,0.369-0.367c0.219,0.074,0.514,0.074,0.953,0.221
			c0.146,0.293,0.221,0.514,0.367,0.808c-0.367,0.22-0.439-0.221-0.66-0.221C79.84,29.546,79.4,30.28,78.813,29.839z M79.694,56.789
			c0.222,0.44,0.222,0.44-0.146,0.661C79.252,57.155,79.252,56.937,79.694,56.789z M80.062,59.286h-0.367v-0.074h0.367V59.286z
			 M79.987,56.054c-0.071,0-0.071,0.074-0.146,0.074c0.074,0,0.074-0.074,0.074-0.146c0.071,0,0.071,0,0.146,0
			C80.062,55.981,79.987,55.981,79.987,56.054z M80.428,49.446h-0.366v-0.074h0.366V49.446z M80.428,39.238
			c-0.145-0.073-0.221-0.221-0.366-0.293c0-0.367,0.146-0.514,0.588-0.514C80.869,38.727,80.649,38.945,80.428,39.238z
			 M80.795,37.035c0.074-0.146,0.146-0.221,0.222-0.439c0.071,0.221,0.146,0.367,0.146,0.588
			C81.017,37.109,80.869,37.035,80.795,37.035z M81.236,59.065c0.146-0.367,0.221-0.66,0.439-1.322
			c0.074,0.662,0.074,0.955,0.146,1.248C81.604,59.065,81.457,59.065,81.236,59.065z M84.101,59.8
			c-0.515-0.514-0.515-0.588,0.071-1.176C84.394,59.358,84.394,59.358,84.101,59.8z M98.051,41.223
			c-0.221-0.074-0.439-0.146-0.366-0.367c0-0.074,0.221-0.146,0.366-0.221V41.223z M101.871,16.035
			c-0.293,1.396-0.441,2.864-0.441,4.259c0.074,1.542-0.807,2.864-0.807,4.259c0,1.468-0.734,2.79-0.881,4.185
			c-0.222,1.616-0.955,3.011-1.322,4.553c-0.44,1.984-1.027,3.967-1.689,5.949c-0.587,1.688-1.174,3.305-1.762,4.92
			c-1.248,3.451-2.645,6.901-4.699,9.913c-0.881,1.248-1.764,2.423-3.158,3.084c-1.027,0.439-1.469,0.439-2.203-0.367
			c-0.953-1.102-1.908-2.131-2.056-3.745c0-0.659-0.44-1.321-0.661-1.981c-0.293-0.81-0.439-1.615-0.514-2.203
			c0.146-2.351,0.221-4.479,0.072-6.609c0-0.22,0-0.515,0.073-0.733c0.661-1.908,0.441-3.965,1.028-5.801
			c0.587-1.689,0.66-3.377,1.396-5.067c0.439-1.027,0.807-2.276,1.026-3.451c0.515-2.056,1.763-3.817,2.058-5.948
			c0.881-0.734,0.514-2.203,1.614-2.791c0.146-0.074,0.222-0.293,0.222-0.44c1.102-3.377,3.229-6.095,5.434-8.812
			c0.734-0.955,1.542-1.763,2.424-2.497c1.762-1.468,3.744-0.954,4.258,1.249c0.367,1.542,0.734,3.084,0.516,4.7
			C101.649,13.759,102.164,14.86,101.871,16.035z M138.806,11.262c-0.146-0.807-0.146-1.615-0.221-2.497
			c-0.221-1.909-0.881-3.671-2.644-4.626c-1.396-0.734-2.862-1.616-4.627-1.396c-0.66,0.073-1.396,0-2.129,0
			c-0.44,0-1.026-0.074-1.322,0.221c-1.026,1.027-2.717,0.367-3.671,1.616c-2.57,0.808-4.553,2.643-6.536,4.406
			c-1.614,1.469-2.937,3.231-4.258,5.067c-1.249,1.763-1.983,3.818-2.791,5.728c-0.44,1.103-0.733,2.423-0.954,3.672
			c-0.66,3.158-0.734,6.315-0.146,9.545c0.293,1.469,0.809,2.791,1.688,3.967c0.882,1.1,1.908,2.201,3.229,2.789
			c1.176,0.514,2.425,0.734,3.672,0.955c0.955,0.146,1.91,0.293,2.791-0.074c1.541-0.66,3.23-0.953,4.771-1.982
			c0.074,0.295,0.147,0.441,0.074,0.588c-0.661,1.615-0.439,3.525-1.469,5.143c-0.073,0.145-0.073,0.438-0.073,0.732
			c0.146,0.809-0.147,1.541-0.587,2.203c-0.221,0.439-0.441,0.881-0.441,1.396c-0.072,0.733-0.367,1.394-0.66,2.056
			c-0.295,0.734-0.809,1.396-0.809,2.129c-0.072,1.322-1.615,1.982-1.32,3.451c0,0.074-0.295,0.221-0.516,0.295
			c-0.293,0.146-0.439,0.439-0.514,0.732c-0.514,1.689-1.836,2.791-3.23,3.818c-1.615,1.176-2.938,0.955-4.186-0.734
			c-0.221-0.293-0.367-0.732-0.809-0.881c-1.103,0.66-0.882,1.689-0.515,2.57c0.515,1.174,1.176,2.35,2.644,2.496
			c0.662,0.074,1.321,0.221,1.983,0.221c1.763,0.146,3.451-0.146,4.992-1.027c0.44-0.221,0.81-0.66,1.249-0.882
			c1.835-0.881,2.938-2.569,4.111-4.038c0.66-0.809,1.541-1.543,1.615-2.717c1.909-2.424,2.424-5.508,3.965-8.078
			c0.074-0.073,0.074-0.222,0.074-0.293c0.072-1.909,1.174-3.599,1.615-5.435c0.367-1.543,0.734-3.084,1.175-4.701
			c0.587-1.98,1.028-4.11,1.396-6.167c0.293-1.469,0.293-2.938,0.882-4.333c0.221-0.439,0.221-1.028,0.073-1.542
			c-0.147-0.733-0.367-1.322-0.367-2.13c0-0.587-0.954-1.395-1.543-1.174c-1.248,0.514-2.495,0.808-3.524,1.762
			c-1.026,0.881-1.174,2.13-1.541,3.231c-0.882,3.011-2.424,5.581-4.993,7.417c-0.808,0.588-1.836,0.881-2.863,1.028
			c-1.176,0.073-2.129-0.294-2.938-1.396c-1.103-1.615-1.614-3.378-1.469-5.288c0-0.808-0.367-1.616-0.073-2.423
			c0.587-1.248,0.439-2.717,0.955-4.039c0.294-0.808,0.661-1.616,0.881-2.57c0.367-1.322,1.102-2.643,1.764-3.817
			c0.808-1.396,1.688-2.864,2.717-4.187c2.056-2.496,4.111-4.772,7.343-5.801c1.028-0.294,1.909-0.44,2.864-0.22
			c1.248,0.22,2.35,1.028,2.643,2.275c0.295,1.028,0.882,2.058,0.882,3.231c0,0.808,0.515,1.175,1.028,1.028
			C138.806,12.364,138.952,11.849,138.806,11.262z M116.116,21.835l-0.074,0.148l-0.072-0.147
			C116.116,21.835,116.116,21.835,116.116,21.835z M115.749,14.713v0.146l-0.074-0.073
			C115.749,14.713,115.749,14.713,115.749,14.713z M115.749,24.626v0.073l-0.074-0.073
			C115.749,24.626,115.749,24.626,115.749,24.626z M113.325,26.682v0.074c0,0.073,0,0.073-0.072,0.073l-0.074-0.073
			C113.253,26.682,113.253,26.682,113.325,26.682z M112.958,28.372c0.074,0.147,0.074,0.293,0.146,0.44
			c-0.293-0.147-0.587-0.221-0.587-0.588C112.665,28.297,112.812,28.297,112.958,28.372z M112.958,30.207
			c0.074,0.147,0.074,0.22,0.146,0.44h-0.587C112.591,30.28,112.591,30.28,112.958,30.207z M111.784,22.497
			c-0.146,0.074-0.221,0.221-0.367,0.294C111.196,22.35,111.417,22.35,111.784,22.497z M111.489,24.039v0.367
			c-0.072,0-0.072,0-0.146,0v-0.367C111.417,24.039,111.417,24.039,111.489,24.039z M111.417,29.473
			c-0.221-0.074-0.295-0.146-0.44-0.146c0-0.221,0.073-0.367,0.146-0.514c0.147,0.073,0.295,0.147,0.441,0.22
			C111.489,29.179,111.489,29.326,111.417,29.473z M112.298,34.688c-0.221-0.147-0.367-0.221-0.514-0.295
			c-0.222-0.293-0.074-0.514,0-0.734c0.145-0.221,0.145-0.439,0.293-0.807c0.221,0.439,0.439,0.733,0.66,1.102
			C112.591,34.174,112.444,34.393,112.298,34.688z M113.032,34.539c0.146-0.221,0.293-0.221,0.439,0
			c-0.072,0.221-0.221,0.221-0.367,0.146C113.032,34.611,113.032,34.539,113.032,34.539z M113.546,35.494
			c-0.074,0.072-0.221,0.072-0.367,0.072c0-0.072,0-0.072,0-0.146h0.367C113.546,35.494,113.546,35.494,113.546,35.494z
			 M113.325,33.07c0.221-0.146,0.295,0,0.295,0.367C113.472,33.219,113.399,33.145,113.325,33.07z M113.032,29.326
			c0-0.146,0.072-0.294,0.072-0.44c0.146,0,0.295,0,0.441-0.073c0.146,0.22,0.367,0.367,0.439,0.587
			C113.62,29.62,113.325,29.473,113.032,29.326z M114.06,16.843h-0.073c0-0.073,0-0.073,0-0.073
			c-0.147-0.074-0.294-0.074-0.44-0.147c0.293-0.146,0.367-0.073,0.44,0.147C114.06,16.77,114.06,16.843,114.06,16.843h0.514
			C114.28,17.063,114.206,16.916,114.06,16.843z M114.354,33.658c-0.073,0-0.073,0-0.073-0.073c0.073,0,0.146,0,0.146,0
			s0.074,0.073,0.074,0.147C114.427,33.732,114.354,33.732,114.354,33.658z M114.501,24.626c0.072-0.073,0.221-0.073,0.293-0.073
			c0.074,0.073,0.074,0.073,0.074,0.146h-0.367V24.626z M114.794,32.483l-0.072-0.073l0.072-0.074c0.074,0,0.074,0.074,0.146,0.074
			C114.868,32.483,114.868,32.483,114.794,32.483z M115.087,31.823c0,0,0,0-0.072-0.074c0.072,0,0.072-0.073,0.146-0.073
			c0,0,0,0.073,0.073,0.146C115.161,31.823,115.161,31.823,115.087,31.823z M115.161,27.27c-0.072-0.147-0.072-0.221-0.146-0.441
			c0.221-0.073,0.366-0.073,0.514-0.147c0,0,0,0,0-0.073c0.073,0,0.146,0,0.146,0s-0.072,0-0.072,0.073h-0.073
			C115.602,26.976,115.602,27.27,115.161,27.27z M115.456,34.025c0.293-0.221,0.293-0.221,0.881,0.439
			C115.822,34.174,115.602,34.1,115.456,34.025z M117.29,62.517c0,0-0.072-0.072-0.072-0.146c0.072,0,0.146-0.073,0.221-0.073
			c0,0,0.072,0.073,0.072,0.146C117.438,62.442,117.364,62.517,117.29,62.517z M120.007,60.239
			c-0.072,0.074-0.219,0.074-0.293,0.074c0,0-0.073-0.074-0.073-0.146h0.366V60.239z M121.329,60.095
			c0-0.074-0.072-0.074-0.072-0.148c0,0,0-0.072,0.072-0.072l0.074,0.072C121.403,60.021,121.329,60.095,121.329,60.095z
			 M121.917,59.065l-0.074-0.146l0.148,0.072C121.917,59.065,121.917,59.065,121.917,59.065z M122.798,58.771v-0.219
			c0.074,0.071,0.074,0.071,0.146,0.145C122.872,58.698,122.872,58.698,122.798,58.771z M122.872,57.817
			c-0.074,0-0.074-0.074-0.146-0.074c0.072-0.073,0.072-0.073,0.146-0.073c0,0,0,0.073,0.072,0.073
			C122.872,57.743,122.872,57.817,122.872,57.817z M122.872,56.349c-0.146-0.146-0.295-0.221-0.44-0.367
			c0.146-0.074,0.294-0.221,0.366-0.146C123.019,55.907,123.091,56.054,122.872,56.349z M123.679,57.45c-0.072,0-0.072,0-0.146,0
			c0,0,0,0,0-0.074c0,0,0.074,0,0.146,0V57.45z M125.441,36.447c0.367,0.295,0.515,0.367,0.661,0.441
			C125.589,37.184,125.589,36.963,125.441,36.447z M126.47,46.361c-0.514-0.295-0.514-0.295-0.367-0.733
			c0.294,0.22,0.294,0.22,0.514,0.587C126.544,46.215,126.47,46.288,126.47,46.361z M126.47,48.49c0-0.145-0.073-0.221-0.073-0.293
			l0.146-0.073C126.69,48.271,126.69,48.346,126.47,48.49z M126.029,46.949c-0.147,0.072-0.221,0.146-0.588,0.439
			C125.661,46.876,125.809,46.803,126.029,46.949z M124.339,51.575c0-0.072,0-0.072,0.074-0.072c0,0.072,0.073,0.146,0.073,0.219
			c-0.073,0.074-0.147,0.074-0.147,0.074C124.339,51.722,124.267,51.649,124.339,51.575z M124.708,55.026h-0.295
			c0-0.072,0-0.072,0-0.146h0.295C124.708,54.954,124.708,54.954,124.708,55.026z M124.854,53.632c0,0,0,0-0.074,0
			c0-0.074,0-0.074,0-0.074c-0.22,0-0.439-0.072-0.439-0.439c0.439-0.073,0.515,0.146,0.439,0.439c0.074,0,0.074,0,0.074,0
			S124.854,53.558,124.854,53.632h0.587C125.147,53.925,125.001,53.853,124.854,53.632z M126.396,54.806
			c-0.073,0.516-0.661,0.516-0.955,0.883c0.147-0.516,0.147-0.516,0.515-0.955C126.103,54.806,126.249,54.806,126.396,54.806
			c0.073-0.22,0.073-0.367,0.073-0.586C126.763,54.513,126.69,54.733,126.396,54.806z M126.544,49.151v-0.072
			c0.072-0.074,0.146-0.074,0.293-0.074c0,0,0,0.074,0.074,0.074C126.763,49.151,126.69,49.151,126.544,49.151z M128.306,51.062
			c-0.221-0.146-0.295-0.293-0.588-0.514c0.221-0.221,0.293-0.295,0.367-0.295c0.146,0,0.221,0.074,0.293,0.074
			c0.074,0.072,0.074,0.221,0.146,0.294C128.452,50.769,128.378,50.841,128.306,51.062z M127.204,48.271
			c0.073-0.588,0.073-0.588,1.103-0.439C127.792,48.051,127.497,48.124,127.204,48.271z M129.04,46.288
			c-0.293-0.073-0.44-0.146-0.66-0.146c-0.073-0.295-0.147-0.515-0.221-0.809c0.439-0.146,0.66,0.146,0.881,0.439V46.288
			L129.04,46.288z M127.792,40.781c0-0.073-0.074-0.221,0-0.295c0.072,0,0.221-0.072,0.588-0.145
			C128.011,40.561,127.938,40.708,127.792,40.781z M128.525,43.426c0.073,0,0.147,0,0.147,0c0,0.072,0,0.072,0.072,0.145
			c-0.072,0-0.072,0-0.146,0C128.599,43.498,128.599,43.498,128.525,43.426z M128.306,41.146c0.072-0.072,0.22-0.219,0.439-0.365
			c0.073,0.146,0.221,0.293,0.295,0.439C128.747,41.516,128.525,41.662,128.306,41.146z M129.259,47.831l0.074-0.073l0.073,0.073
			C129.259,47.831,129.259,47.831,129.259,47.831z M129.554,42.029c-0.073,0-0.073,0-0.146,0c0,0,0-0.073,0-0.146
			c0,0.073,0.073,0,0.146,0.073C129.554,41.956,129.554,41.956,129.554,42.029z M130.288,45.406l-0.367-0.366
			c0.146-0.073,0.293-0.073,0.515-0.073C130.361,45.113,130.361,45.262,130.288,45.406z M131.757,32.924
			c-0.221,0.221-0.295,0.073-0.367-0.072h-0.074c-0.146,0.072-0.293,0.221-0.514,0.367c-0.146-0.146-0.367-0.222-0.588-0.295
			c0.146-0.22,0.221-0.441,0.295-0.514c0.514-0.146,0.881-0.221,1.469-0.074c-0.146,0.146-0.662,0.514-0.588,0.514
			C131.536,32.924,131.61,32.924,131.757,32.924z M130.583,33.658c0,0.074-0.074,0.221-0.074,0.293
			c-0.073-0.072-0.221-0.146-0.588-0.439C130.361,33.658,130.435,33.658,130.583,33.658z M130.802,41.441
			c-0.367-0.074-0.514-0.074-0.588-0.074c0-0.072,0.074-0.145,0.074-0.145C130.361,41.295,130.435,41.295,130.802,41.441z
			 M130.583,42.91c0.219-0.221,0.365-0.295,0.586-0.514c0,0.219,0.074,0.367,0.146,0.588
			C131.095,42.984,130.876,42.984,130.583,42.91z M131.095,42.104v-0.44c0.074,0,0.148,0,0.148,0c0,0.147,0.071,0.294,0.071,0.44
			H131.095z M131.903,40.635v0.439C131.683,40.854,131.831,40.708,131.903,40.635c0-0.074,0-0.074,0-0.146l0.074,0.072
			L131.903,40.635z M131.536,39.387c-0.146-0.441-0.293-0.809-0.439-1.248c0.146-0.367,0.294-0.809,0.515-1.25
			c0.22,0.662,0.438,1.396,0.515,2.131C131.903,39.165,131.757,39.238,131.536,39.387z M132.638,36.889
			c-0.073,0.074-0.293,0-0.293-0.072c-0.074-0.293-0.074-0.514,0.293-0.514C132.932,36.521,132.932,36.742,132.638,36.889z
			 M132.712,30.794c0.22,0.293,0.22,0.44-0.221,0.44C132.271,31.015,132.345,30.868,132.712,30.794z M133.079,32.777
			c-0.221-0.146-0.295-0.221-0.367-0.294c0.146-0.367,0.293-0.66,0.66-0.293C133.298,32.336,133.151,32.483,133.079,32.777z
			 M133.445,25.875l0.147,0.073h-0.147C133.445,25.875,133.445,25.875,133.445,25.875z M133.739,30.647
			c0.073,0.293,0.073,0.514,0.073,0.735c-0.073,0-0.22,0.073-0.294,0.073c-0.073-0.221-0.221-0.368-0.293-0.661
			C133.445,30.794,133.519,30.721,133.739,30.647z M132.638,30.134c0.146-0.147,0.221-0.367,0.367-0.514
			C133.226,29.986,133.005,30.134,132.638,30.134z M131.831,28.519c0.293-0.074,0.586-0.147,0.881-0.221
			c0.072,0.146,0.072,0.294,0.146,0.368C132.491,28.959,132.124,28.885,131.831,28.519z M132.784,26.462
			c-0.807,0.367-0.881,0.367-1.32-0.22C131.978,26.021,132.417,25.875,132.784,26.462z M129.774,30.501
			c0.809,0.22,0.809,0.22,1.248,0.514c0.072,0,0.072,0,0.072,0c0.074,0,0.221,0.073,0.662,0.073
			c-0.441,0.074-0.514,0.147-0.588,0.074c-0.074,0-0.074-0.074-0.074-0.147c-0.293,0.073-0.439,0.294-0.586,0.441
			c-0.367-0.221-0.734,0-1.103,0.074C129.259,31.382,129.259,31.382,129.774,30.501z M129.259,37.109
			c0.295,0.221,0.222,0.439,0.222,0.66c0,0,0,0,0,0.074h-0.073c0.073,0,0.073,0,0.073-0.074c-0.294-0.146-0.515-0.293-0.882-0.514
			C128.966,37.184,129.113,37.184,129.259,37.109z M127.425,38.357c0.293,0,0.438,0.074,0.438,0.367c0.074,0,0.074,0,0.074,0
			s0,0,0.073,0.072h0.439c-0.221,0.221-0.367,0.074-0.439,0c-0.073,0-0.073,0-0.147,0c0-0.072,0-0.072,0-0.072
			c-0.146,0-0.293-0.074-0.438-0.074C127.425,38.506,127.425,38.506,127.425,38.357z M127.13,35.421
			c0.074,0,0.074,0.073,0.146,0.073c-0.072,0.072-0.072,0.072-0.146,0.072l-0.072-0.072C127.13,35.494,127.13,35.421,127.13,35.421z
			 M127.792,41.59c-0.074,0.366-0.295,0.439-0.733,0.514C127.204,41.662,127.277,41.367,127.792,41.59z M127.277,42.837
			c-0.073,0.073-0.073,0.073-0.147,0.147c0-0.074,0-0.074-0.071-0.147H127.277z M126.544,44.232
			c0.293,0.293,0.515,0.515,0.733,0.808c-0.587,0.294-0.808-0.146-1.175-0.366C126.249,44.525,126.396,44.381,126.544,44.232z
			 M125.515,35.641c0.515,0.074,0.588,0.295,0.588,0.588l-0.073,0.074c0,0,0-0.074,0.073-0.074h-1.322l-0.072-0.072
			C125.001,36.008,125.294,35.788,125.515,35.641z M120.669,37.771c0.221,0,0.367,0.072,0.588,0.072
			c-0.146,0.516-0.146,0.516-0.514,0.883C120.521,38.65,120.521,38.65,120.669,37.771z M119.126,37.258
			c0.516,0.072,0.662,0.438,0.662,0.881c-0.146,0.145-0.295,0.221-0.515,0.367c-0.147-0.223-0.294-0.367-0.44-0.516
			C118.906,37.771,119.054,37.477,119.126,37.258z M118.319,37.917c0,0-0.074,0-0.074,0.073c-0.072-0.073-0.146-0.146-0.072-0.146
			c0,0,0.072-0.072,0.146-0.072C118.319,37.771,118.319,37.844,118.319,37.917z M118.319,36.303h-0.734
			c-0.074-0.367-0.146-0.662-0.221-1.176C117.952,35.348,118.099,35.641,118.319,36.303z M117.585,37.624
			c0.146,0.293,0.221,0.587,0.293,0.882c-0.293,0.145-0.293,0.145-0.953-0.734C117.07,37.477,117.29,37.551,117.585,37.624z
			 M117.585,15.447c-0.074-0.073-0.074-0.073-0.074-0.073l0.074-0.074V15.447z M117.364,13.024
			c-0.146,0.146-0.294,0.367-0.514,0.808V12.29c0.367,0.074,0.66,0.146,1.027,0.22C117.657,12.73,117.511,12.877,117.364,13.024z
			 M118.392,12.29c0.221-0.147,0.367-0.294,0.588-0.441C118.906,12.216,118.906,12.216,118.392,12.29z M118.906,13.538
			c0.073-0.146,0.147-0.221,0.22-0.294C119.273,13.465,119.2,13.611,118.906,13.538z M119.714,11.996v-0.073l0.074,0.073
			C119.714,11.996,119.714,11.996,119.714,11.996z M120.376,10.527c-0.074,0-0.074,0-0.074,0c0,0.074-0.073,0.074-0.073,0.074
			c0,0.073-0.073,0.073-0.073,0.073l0.073-0.073c0,0,0,0,0.073-0.074c0,0,0-0.073,0.074-0.073V10.527z M120.595,9.353
			c-0.146,0.147-0.221,0.221-0.293,0.221h-1.248c0.66-0.514,0.953-0.881,1.541-0.662V9.353z M121.036,7.958v0.073l-0.074-0.073
			C121.036,7.958,121.036,7.958,121.036,7.958z M120.962,12.364c-0.293-0.588,0.146-0.661,0.367-0.955
			c0.146,0.222,0.293,0.367,0.44,0.587C121.477,12.143,121.183,12.216,120.962,12.364z M121.624,11.262
			c-0.295-0.147-0.44-0.22-0.734-0.44c0.146-0.146,0.221-0.294,0.367-0.439c0.221,0.074,0.439,0.22,0.66,0.293
			C121.843,10.895,121.771,11.041,121.624,11.262z M123.019,9.5c-0.146-0.22-0.221-0.367-0.367-0.588
			c0.293-0.073,0.514-0.073,0.734-0.073c0.072,0.146,0.146,0.22,0.221,0.439C123.386,9.353,123.239,9.426,123.019,9.5z
			 M123.165,7.737c-0.146-0.146-0.293-0.221-0.367-0.294c0.074-0.661,0.367-0.514,0.881-0.367
			C123.46,7.443,123.312,7.59,123.165,7.737z M124.413,8.031c-0.146-0.073-0.22-0.146-0.367-0.22c0-0.073,0-0.147,0-0.147
			c0.367-0.147,0.662-0.661,1.396-0.22C125.001,7.664,124.708,7.884,124.413,8.031z M126.249,5.901l-0.072-0.146l0.146,0.073
			C126.249,5.901,126.249,5.901,126.249,5.901z M128.378,5.241c-0.072-0.146-0.072-0.294-0.146-0.439h0.661
			C128.673,5.02,128.525,5.094,128.378,5.241z"/>
	</g>
</g>
</svg>
