<?xml version="1.0" encoding="utf-8"?>
<!-- Generator: Adobe Illustrator 16.0.0, SVG Export Plug-In . SVG Version: 6.00 Build 0)  -->
<!DOCTYPE svg PUBLIC "-//W3C//DTD SVG 1.1//EN" "http://www.w3.org/Graphics/SVG/1.1/DTD/svg11.dtd">
<svg version="1.1" id="Layer_1" xmlns="http://www.w3.org/2000/svg" xmlns:xlink="http://www.w3.org/1999/xlink" x="0px" y="0px"
	 width="1920px" height="579.277px" viewBox="-929.917 1718.479 1920 579.277"
	 enable-background="new -929.917 1718.479 1920 579.277" xml:space="preserve">
<g>
	<g>
		<path fill-rule="evenodd" clip-rule="evenodd" d="M-7.289,900.096c-3.839-5.236-7.479-10.789-10.817-16.508l-3.455,2.016
			c3.409,5.84,7.125,11.512,11.047,16.857L-7.289,900.096z M-67.255-1354.102l-2.717-2.936c-5.018,4.642-9.877,9.263-14.444,13.738
			l2.799,2.857C-77.076-1344.889-72.244-1349.484-67.255-1354.102z M-13.711-1909.344c-5.979-2.649-12.209-5.2-18.52-7.583
			l-1.414,3.742c6.241,2.357,12.403,4.88,18.314,7.498L-13.711-1909.344z M-59.064-516.957c1.352,6.221,2.474,12.905,3.336,19.863
			l3.969-0.492c-0.876-7.077-2.019-13.881-3.396-20.22L-59.064-516.957z M-35.583-2329.949l3.84,1.118
			c1.884-6.473,3.481-13.03,4.748-19.492l-3.926-0.769C-32.164-2342.749-33.734-2336.308-35.583-2329.949z M-10.994,80.076
			c-6.54-2.163-12.717-4.768-18.362-7.741l-1.864,3.54c5.839,3.075,12.222,5.766,18.97,7.998L-10.994,80.076z M-28.643-938.391
			l1.932,3.504c6.334-3.492,12.029-7.191,16.927-10.998l-2.453-3.158C-16.971-945.365-22.49-941.781-28.643-938.391z
			 M-49.528-459.25c-0.001-6.083-0.156-12.121-0.462-17.944l-3.994,0.208c0.302,5.755,0.455,11.723,0.456,17.735
			c0,0.834-0.003,1.658-0.009,2.468l4,0.03C-49.531-457.573-49.528-458.405-49.528-459.25z M-59.258,1192.676l-3.585,1.771
			c2.302,4.654,3.963,7.688,4.493,8.64l-0.01,0.005c0.065,0.137,1.631,3.387,4.642,8.959l3.52-1.9
			c-2.703-5.002-4.25-8.161-4.512-8.7l0.022-0.013C-54.707,1201.406-56.558,1198.131-59.258,1192.676z M-55.064-426.734l3.975,0.454
			c0.018-0.152,0.433-3.813,0.835-10.059l-3.992-0.257C-54.641-430.459-55.059-426.771-55.064-426.734z M-52.823-1112.088
			c5.764,4.313,10.836,8.329,15.505,12.275l2.582-3.055c-4.73-3.998-9.862-8.061-15.69-12.423L-52.823-1112.088z M-48.977,810.271
			c1.314,6.688,2.846,13.279,4.551,19.588l3.861-1.041c-1.681-6.221-3.19-12.721-4.487-19.318L-48.977,810.271z M-51.477,765.623
			c-8.284,0-15,6.715-15,15c0,8.283,6.716,15,15,15s15-6.717,15-15C-36.477,772.338-43.193,765.623-51.477,765.623z
			 M-24.645,330.699c2.102,2.006,4.395,3.869,6.817,5.541l2.271-3.293c-2.249-1.551-4.377-3.281-6.326-5.143
			c-2.575-2.457-5.044-5.164-7.548-8.273l-3.116,2.51C-29.931,325.287-27.347,328.119-24.645,330.699z M-183.347,595.357
			c-7.321-0.844-13.735-1.799-19.608-2.92l-0.75,3.928c5.971,1.141,12.48,2.111,19.9,2.967L-183.347,595.357z M-186.418-208.474
			c-6.272-1.884-12.594-3.601-18.707-5.262l-0.883-0.24l-1.049,3.861l0.884,0.24c6.088,1.654,12.383,3.364,18.605,5.232
			L-186.418-208.474z M-123.65,602.32l-0.827,3.912c7.063,1.494,13.186,3.338,18.715,5.637l1.536-3.693
			C-109.988,605.781-116.341,603.865-123.65,602.32z M-112.683,1632.371l3.457,2.012c3.727-6.404,6.365-12.721,7.84-18.77
			l-3.886-0.947C-106.656,1620.342-109.15,1626.299-112.683,1632.371z M-169.41,215.58c-5.888-0.598-11.798-0.902-17.567-0.902
			h-0.014c-0.867,0-1.731,0.008-2.593,0.02l0.062,4c0.846-0.012,1.712-0.041,2.545-0.02c5.634,0,11.409,0.297,17.162,0.881
			L-169.41,215.58z M-80.624-1131.798c3.886,2.679,7.799,5.377,11.704,8.109l2.293-3.277c-3.913-2.738-7.833-5.441-11.727-8.125
			l-4.649-3.208l-2.273,3.292L-80.624-1131.798z M-108.174,1576.105l-3.444,2.033c3.626,6.141,5.911,11.932,6.985,17.701
			l3.933-0.732C-101.862,1588.871-104.306,1582.654-108.174,1576.105z M-144.02,603.188l0.455-3.973
			c-6.279-0.721-12.565-1.273-19.22-1.859l-0.725-0.064l-0.351,3.986l0.726,0.063C-156.508,601.924-150.248,602.475-144.02,603.188z
			 M-84.857,1095.807l3.913,0.826c1.414-6.693,3.886-12.598,7.35-17.545l-3.277-2.295
			C-80.645,1082.186-83.332,1088.582-84.857,1095.807z M-130.517,226.102c-5.944-2.404-12.292-4.717-18.87-6.875l-1.247,3.801
			c6.493,2.129,12.756,4.412,18.617,6.783L-130.517,226.102z M-148.465-193.044c-5.562-3.199-11.64-6.085-18.58-8.82l-1.467,3.721
			c6.756,2.664,12.662,5.466,18.053,8.567L-148.465-193.044z M-149.814-616.964c-6.048-1.817-9.758-2.485-9.914-2.512l-0.699,3.938
			c0.036,0.007,3.635,0.653,9.462,2.404L-149.814-616.964z M-160.853-900.881c-6.438,0.913-12.938,1.964-19.321,3.123l0.715,3.935
			c6.332-1.149,12.781-2.191,19.167-3.098L-160.853-900.881z M-145.147-1187.82c3.458,5.251,7.642,10.369,12.788,15.648l2.864-2.793
			c-4.967-5.095-8.995-10.02-12.313-15.055L-145.147-1187.82z M-141.839-904.274l0.642,3.948c6.619-1.076,13.236-2.265,19.668-3.532
			l-0.774-3.925C-128.691-906.523-135.264-905.343-141.839-904.274z M-121.508-163.11l3.336-2.207l-0.253-0.38
			c-3.732-5.572-8.197-10.718-13.271-15.296l-2.68,2.97c4.83,4.358,9.079,9.255,12.626,14.551L-121.508-163.11z M-98.428-1329.104
			c-4.764,5.007-9.289,9.971-13.448,14.754l3.019,2.625c4.121-4.739,8.604-9.659,13.328-14.622L-98.428-1329.104z M-94.723,244.445
			c-5.405-3.521-11.283-6.9-17.472-10.043l-1.811,3.568c6.06,3.076,11.813,6.383,17.099,9.826L-94.723,244.445z M-117.478-1158.663
			c4.584,3.757,9.782,7.737,15.89,12.169l2.349-3.239c-6.044-4.383-11.181-8.317-15.703-12.025L-117.478-1158.663z
			 M-132.214-606.066c6.134,2.787,12.075,5.977,17.658,9.479l2.126-3.387c-5.733-3.599-11.833-6.874-18.129-9.735L-132.214-606.066z
			 M-89.979-46.924c-0.708-5.396-1.384-10.823-2.059-16.245l-0.485-3.888l-3.969,0.496l0.484,3.886
			c0.676,5.432,1.353,10.867,2.063,16.271L-89.979-46.924z M-29.78,1243.943c-3.638-5.445-7.205-11.053-10.602-16.67l-3.423,2.07
			c3.428,5.666,7.027,11.326,10.698,16.822L-29.78,1243.943z M-67.775,1484.883c6.024-1.836,12.432-3.412,19.046-4.686l-0.756-3.928
			c-6.752,1.301-13.298,2.91-19.457,4.787L-67.775,1484.883z M-42.196,1056.082c-7.288,1.492-13.775,3.824-19.282,6.924l1.963,3.486
			c5.146-2.896,11.243-5.082,18.123-6.492L-42.196,1056.082z M-64.152,270.713c-4.525-5.133-9.232-9.775-14.39-14.191l-2.602,3.039
			c5.015,4.293,9.592,8.807,13.991,13.797L-64.152,270.713z M-83.404-7.035c-1.308-6.005-2.517-12.497-3.694-19.849l-3.949,0.633
			c1.189,7.425,2.411,13.989,3.735,20.067L-83.404-7.035z M418.561,1056.051l3.988-0.316c-0.562-7.076-1.311-13.795-2.227-19.971
			l-3.957,0.59C417.269,1042.438,418.007,1049.064,418.561,1056.051z M-63.126,50.024c4.41,5.347,9.341,10.235,14.654,14.533
			l2.516-3.111c-5.106-4.128-9.845-8.828-14.085-13.966L-63.126,50.024z M-63.529-919.017c6.61-2.263,12.908-4.664,18.72-7.133
			l-1.564-3.682c-5.724,2.433-11.931,4.799-18.45,7.03L-63.529-919.017z M-55.186-1370.391l2.646,2.998
			c4.789-4.228,9.838-8.595,15.005-12.979l-2.588-3.051C-45.31-1379.021-50.377-1374.637-55.186-1370.391z M-66.965,652.754
			c2.248,5.629,4.184,11.918,5.755,18.695l3.896-0.902c-1.615-6.975-3.613-13.459-5.937-19.275L-66.965,652.754z M-51.435,750.297
			c-0.15-4.789-0.226-9.729-0.226-14.678c0-1.74,0.01-3.48,0.028-5.219l-4-0.041c-0.018,1.754-0.027,3.506-0.027,5.26
			c0,4.992,0.076,9.973,0.228,14.801L-51.435,750.297z M-53.852,690.344l-3.969,0.5c0.772,6.146,1.35,12.771,1.716,19.691
			l3.994-0.211C-52.482,703.309-53.068,696.586-53.852,690.344z M-72.665-554.449c3.081,5.372,5.839,11.485,8.194,18.169l3.773-1.33
			c-2.438-6.913-5.297-13.248-8.499-18.83L-72.665-554.449z M-101.996-908.075c6.674-1.575,13.187-3.256,19.359-5l-1.088-3.85
			c-6.115,1.728-12.571,3.395-19.188,4.956L-101.996-908.075z M-74.477-579.377c0-8.284-6.716-15-15-15s-15,6.716-15,15
			s6.716,15,15,15S-74.477-571.093-74.477-579.377z M-70.856,30.92c-2.735-5.439-5.232-11.67-7.422-18.521l-3.81,1.219
			c2.285,7.146,4.79,13.395,7.659,19.099L-70.856,30.92z M-107.477-151.377c-8.284,0-15,6.716-15,15s6.716,15,15,15s15-6.716,15-15
			S-99.193-151.377-107.477-151.377z M-102.26-106.639c1.062,5.904,2.09,12.439,3.145,19.979l3.961-0.554
			c-1.062-7.591-2.098-14.177-3.169-20.133L-102.26-106.639z M-44.136,305.551l3.36-2.17c-0.706-1.092-1.413-2.195-2.125-3.305
			c-2.796-4.355-5.688-8.857-8.87-13.436l-3.284,2.283c3.14,4.518,6.011,8.99,8.788,13.314
			C-45.552,303.352-44.843,304.455-44.136,305.551z M51.571,951.775c-5.79-3.244-11.414-6.773-16.716-10.49l-2.297,3.275
			c5.411,3.795,11.15,7.396,17.058,10.705L51.571,951.775z M60.302,341.354c-6.706,1.316-13.281,2.25-19.545,2.773l0.334,3.986
			c6.409-0.535,13.132-1.49,19.982-2.836L60.302,341.354z M41.301-1494.378l3.572,1.8c3.025-6.001,5.938-12.064,8.655-18.018
			l-3.638-1.661C47.195-1506.349,44.304-1500.333,41.301-1494.378z M37.741,1061.891c-6.799-1.631-13.411-3.025-19.649-4.15
			l-0.709,3.938c6.166,1.109,12.7,2.49,19.425,4.104L37.741,1061.891z M21.105,344.377c-6.935-0.463-13.401-1.568-19.218-3.283
			l-1.131,3.838c6.099,1.797,12.855,2.953,20.081,3.438L21.105,344.377z M16.697,932.129l2.633-3.01
			c-4.941-4.322-9.687-8.957-14.106-13.779l-2.949,2.703C6.794,922.973,11.647,927.711,16.697,932.129z M17.778,1307.461l2.74-2.914
			c-4.633-4.355-9.297-9.063-13.862-13.992l-2.936,2.717C8.349,1298.27,13.078,1303.043,17.778,1307.461z M112.198,1350.078
			c-1.805-0.463-3.626-0.932-5.461-1.408l-1.004,3.873c1.837,0.477,3.661,0.945,5.47,1.41L112.198,1350.078z M110.74,1094.818
			c-6.287-3.996-11.886-7.426-17.116-10.482l-2.018,3.453c5.187,3.031,10.743,6.434,16.987,10.404L110.74,1094.818z
			 M125.872,978.109c-6.595-1.303-13.091-2.803-19.309-4.461l-1.029,3.867c6.301,1.68,12.883,3.199,19.563,4.518L125.872,978.109z
			 M68.58,93.901l0.031-4c-7.562-0.06-14.175-0.215-20.217-0.475l-0.172,3.996C54.313,93.684,60.971,93.84,68.58,93.901z
			 M75.931,1074.73c-7.064-3.477-13.203-5.994-18.767-7.695l-1.17,3.826c5.357,1.637,11.301,4.076,18.171,7.457L75.931,1074.73z
			 M87.635,967.859c-6.323-2.197-12.513-4.639-18.396-7.252l-1.623,3.656c5.984,2.658,12.277,5.139,18.705,7.375L87.635,967.859z
			 M12.012-1018.381c0.419,3.871,0.631,7.868,0.631,11.879c0,2.493-0.082,5.056-0.245,7.617l3.992,0.254
			c0.168-2.646,0.253-5.294,0.253-7.871c0-4.155-0.22-8.296-0.654-12.309L12.012-1018.381z M0.635-1055.31
			c3.078,5.797,5.592,11.828,7.473,17.926l3.822-1.178c-1.954-6.338-4.566-12.604-7.762-18.622L0.635-1055.31z M100.097,1866.041
			c6.353,1.002,13.129,2.063,19.642,3.018l0.58-3.957c-6.493-0.953-13.256-2.01-19.597-3.012L100.097,1866.041z M189.742,101.65
			c-5.918-2.653-12.324-4.775-19.585-6.484l-0.916,3.895c7.01,1.65,13.181,3.69,18.864,6.24L189.742,101.65z M101.086,1722.078
			l-0.43,3.977c6.218,0.67,12.489,2.25,18.641,4.695l1.479-3.717C114.287,1724.453,107.662,1722.787,101.086,1722.078z
			 M-86.612,618.428l-2.488,3.133c4.929,3.916,9.331,8.648,13.084,14.061l3.287-2.279C-76.705,627.607-81.376,622.59-86.612,618.428
			z M185.008,987.939c6.509-0.049,13.264-0.313,20.078-0.791l-0.279-3.99c-6.731,0.471-13.402,0.732-19.828,0.781L185.008,987.939z
			 M99.373,332.84l-1.902-3.52c-4.612,2.494-7.665,4.018-8.53,4.444l-0.08-0.21c-0.035,0.014-3.566,1.352-9.355,3.07l1.139,3.834
			c5.947-1.766,9.491-3.107,9.639-3.164l-0.171-0.45l0.313,0.647C90.561,337.426,93.818,335.844,99.373,332.84z M9.488-978.286
			c-1.494,5.401-4.183,10.681-7.991,15.689l3.184,2.422c4.132-5.434,7.052-11.188,8.679-17.103l0.026-0.107
			c0.093-0.43,0.183-0.86,0.271-1.289l-3.918-0.807C9.657-979.083,9.574-978.686,9.488-978.286z M7.622,89.014
			c6.356,1.243,12.978,2.214,20.243,2.965L28.278,88c-7.146-0.739-13.65-1.69-19.888-2.912L7.622,89.014z M28.562,1750.992
			c6.152-4.1,11.628-7.492,16.737-10.375l-1.965-3.486c-5.197,2.932-10.755,6.377-16.99,10.533L28.562,1750.992z M10.133,1471.479v4
			h0.547c5.619,0,11.735,0.076,19.247,0.242l0.088-3.998c-7.542-0.166-13.686-0.244-19.335-0.244H10.133z M144.155,1116.902
			c-6.714-4.539-11.84-7.979-16.622-11.152l-2.211,3.334c4.771,3.164,9.889,6.6,16.593,11.133L144.155,1116.902z M191.78,1153.656
			c5.988,3.902,11.509,7.43,16.875,10.787l2.121-3.391c-5.346-3.344-10.845-6.859-16.813-10.746L191.78,1153.656z M92.528-1623.807
			l-3.878-0.98c-1.596,6.309-3.327,12.757-5.146,19.163l3.848,1.092C89.181-1610.975,90.922-1617.46,92.528-1623.807z
			 M99.237-1801.632c-2.149-6.58-4.711-12.858-7.616-18.659l-3.575,1.792c2.815,5.624,5.302,11.717,7.389,18.109L99.237-1801.632z
			 M154.448,1748.9c-5.273-4.74-10.6-8.908-15.831-12.387l-2.215,3.33c5.07,3.373,10.242,7.42,15.372,12.031L154.448,1748.9z
			 M81.131-1837.516c-3.815-5.334-8.079-10.583-12.673-15.601l-2.951,2.701c4.486,4.9,8.648,10.023,12.37,15.227L81.131-1837.516z
			 M104.429-1736.162c0,4.445-0.102,9.049-0.302,13.685l3.996,0.173c0.203-4.693,0.306-9.355,0.306-13.857
			c0-2.059-0.021-4.112-0.063-6.158l-4,0.084C104.408-1740.217,104.429-1738.192,104.429-1736.162z M107.19-1762.319
			c-0.685-6.872-1.663-13.551-2.911-19.851l-3.924,0.777c1.223,6.174,2.184,12.726,2.854,19.471L107.19-1762.319z M45.523-1857.378
			c8.284,0,15-6.715,15-15c0-8.284-6.716-15-15-15s-15,6.716-15,15C30.523-1864.093,37.239-1857.378,45.523-1857.378z
			 M14.739-1440.783l-3.318-2.232c-3.752,5.578-7.607,11.007-11.46,16.137l3.199,2.403
			C7.053-1429.661,10.95-1435.148,14.739-1440.783z M61.407-1528.99c0.751-1.784,3.499-8.401,7.316-18.644l-3.748-1.396
			c-3.791,10.169-6.512,16.722-7.255,18.487L61.407-1528.99z M21.79-1890.843c-5.55-3.398-11.421-6.709-17.45-9.84l-1.844,3.55
			c5.946,3.088,11.735,6.352,17.206,9.701L21.79-1890.843z M35.537-1474.91l-3.5-1.937c-3.232,5.838-6.578,11.605-9.947,17.144
			l3.418,2.078C28.905-1463.209,32.28-1469.025,35.537-1474.91z M106.711-1702.355l-3.98-0.387c-0.62,6.39-1.419,13.004-2.374,19.66
			l3.959,0.569C105.28-1689.228,106.085-1695.905,106.711-1702.355z M71.653-1567.734l3.785,1.292
			c2.146-6.277,4.234-12.658,6.209-18.967l-3.817-1.195C75.865-1580.328,73.786-1573.979,71.653-1567.734z M-34.663,847.725
			l-3.768,1.344c2.287,6.41,4.838,12.684,7.584,18.654l3.634-1.674C-29.909,860.189-32.416,854.023-34.663,847.725z
			 M158.221,2165.98c-1.174-6.527-2.618-13.096-4.292-19.521l-3.871,1.008c1.648,6.328,3.07,12.795,4.226,19.221L158.221,2165.98z
			 M160.999,2185.773l-3.98,0.404c0.658,6.498,1.072,13.107,1.229,19.643l3.998-0.096
			C162.087,2199.086,161.667,2192.375,160.999,2185.773z M144.373,2128.623l3.783-1.301c-2.148-6.25-4.571-12.521-7.203-18.639
			l-3.674,1.58C139.871,2116.289,142.258,2122.467,144.373,2128.623z M93.22-1644.091l3.906,0.86
			c1.453-6.602,2.784-13.187,3.958-19.571l-3.935-0.723C95.985-1657.186,94.662-1650.648,93.22-1644.091z M159.573,1869.367
			c-5.82-0.277-12.245-0.82-19.642-1.668l-0.455,3.977c7.486,0.855,13.998,1.406,19.907,1.686L159.573,1869.367z M156.106,2245.086
			l3.963,0.537c0.884-6.502,1.516-13.201,1.878-19.908l-3.994-0.217C157.596,2232.098,156.974,2238.689,156.106,2245.086z
			 M90.406,89.887l-1.529,0.008l0.02,4l1.529-0.008c6.298-0.029,12.56-0.06,18.741-0.028l0.021-4
			C102.991,89.826,96.719,89.858,90.406,89.887z M134.492,311.67l-2.217-3.33c-5.553,3.697-11.3,7.344-17.082,10.834l2.066,3.424
			C123.093,319.076,128.891,315.4,134.492,311.67z M145.443,981.379l-0.549,3.963c0.958,0.133,1.919,0.26,2.887,0.387
			c5.616,0.73,11.378,1.287,17.126,1.652l0.254-3.99c-5.66-0.361-11.334-0.908-16.864-1.629
			C147.34,981.639,146.389,981.51,145.443,981.379z M177.287,1139.287c-5.58-3.73-11.111-7.467-16.575-11.166l-2.242,3.311
			c5.47,3.705,11.007,7.443,16.594,11.182L177.287,1139.287z M149.923,91.77c-6.189-0.693-12.854-1.179-20.374-1.488l-0.164,3.995
			c7.426,0.307,13.998,0.787,20.094,1.467L149.923,91.77z M-11.004,1999.154c5.462,3.373,11.424,6.207,18.226,8.668l1.361-3.762
			c-6.541-2.365-12.261-5.084-17.486-8.311L-11.004,1999.154z M-55.954,1934.502c2.197,6.66,4.613,12.928,7.182,18.629l3.647-1.643
			c-2.512-5.574-4.877-11.711-7.03-18.238L-55.954,1934.502z M-39.282,1970.779c3.795,5.893,8,11.201,12.5,15.775l2.853-2.805
			c-4.308-4.381-8.342-9.473-11.989-15.137L-39.282,1970.779z M-86.301,1116.18c0.285,6.25,1.164,13.012,2.612,20.098l3.919-0.801
			c-1.406-6.883-2.259-13.438-2.534-19.479L-86.301,1116.18z M-60.245,1894.684c-0.761,4.139-1.147,8.652-1.146,13.41
			c0,2.201,0.083,4.504,0.246,6.846l3.99-0.277c-0.157-2.25-0.236-4.459-0.236-6.568c0-4.518,0.363-8.787,1.08-12.686
			L-60.245,1894.684z M-56.84,1800.826c-6.211,2.725-12.389,4.965-18.36,6.66l1.093,3.848c6.146-1.746,12.497-4.047,18.874-6.844
			L-56.84,1800.826z M-67.999,1173.223c-2.567-6.328-4.837-12.596-6.748-18.633l-3.813,1.207c1.942,6.137,4.248,12.506,6.854,18.93
			L-67.999,1173.223z M69.639,1472.508c-6.935-0.006-13.895-0.152-19.788-0.293l-0.096,3.998c5.916,0.143,12.904,0.289,19.88,0.295
			L69.639,1472.508z M41.645,1853.791c-7.229-0.719-13.742-1.191-19.908-1.447l-0.166,3.996c6.089,0.252,12.526,0.721,19.678,1.432
			L41.645,1853.791z M27.392,2009.531l-0.939,3.889c3.187,0.771,6.389,1.5,9.594,2.229c3.189,0.727,6.488,1.477,9.722,2.26
			l0.941-3.887c-3.261-0.789-6.572-1.543-9.775-2.273C33.746,2011.023,30.562,2010.299,27.392,2009.531z M-266.551,236.334
			l2.049,3.436c5.648-3.369,11.547-6.383,17.533-8.957l-1.58-3.674C-254.695,229.781-260.752,232.875-266.551,236.334z
			 M-39.318,1792l1.966,3.482c5.375-3.033,10.946-6.447,17.031-10.436l-2.193-3.346C-28.525,1785.641-34.021,1789.01-39.318,1792z
			 M3.855,1763.381c-3.323,2.375-6.666,4.766-10.033,7.145l2.307,3.268c3.375-2.383,6.724-4.779,10.053-7.16
			c2.047-1.463,4.085-2.92,6.117-4.367l-2.318-3.26C7.945,1760.455,5.903,1761.914,3.855,1763.381z M1.711,1852.385
			c-7.318,0.393-14.041,1.252-19.981,2.559l0.859,3.906c5.729-1.258,12.233-2.09,19.335-2.471L1.711,1852.385z M-37.385,1861.918
			c-6.334,3.549-11.478,8.166-15.289,13.721l3.298,2.264c3.461-5.045,8.153-9.248,13.947-12.498L-37.385,1861.918z
			 M-218.992,1661.895l0.171,3.996c3.28-0.141,6.82-0.209,10.822-0.209h0.057c2.576,0,5.306,0.027,8.841,0.088l0.068-4
			c-3.559-0.061-6.31-0.088-8.909-0.088C-211.986,1661.664-215.639,1661.752-218.992,1661.895z M-232.601,1805.344
			c6.018,1.689,12.58,3.197,19.505,4.48l0.729-3.934c-6.807-1.262-13.25-2.74-19.151-4.398L-232.601,1805.344z M-179.231,1662.061
			l0.003,4c7.961-0.008,14.325-0.301,20.026-0.924l-0.435-3.977C-165.191,1661.768-171.417,1662.053-179.231,1662.061z
			 M-193.353,1812.795c6.253,0.746,12.931,1.375,19.847,1.869l0.286-3.988c-6.854-0.49-13.468-1.115-19.658-1.854L-193.353,1812.795
			z M-225.463-219.528c-7.598-2.378-13.545-4.625-18.714-7.071l-1.71,3.617c5.34,2.526,11.451,4.837,19.23,7.271L-225.463-219.528z
			 M-222.083,587.67c-6.425-2.035-12.547-4.492-18.198-7.305l-1.783,3.582c5.835,2.902,12.151,5.439,18.772,7.537L-222.083,587.67z
			 M-105.49,1497.494l2.119,3.393c5.452-3.406,11.257-6.492,17.254-9.174l-1.632-3.652
			C-93.914,1490.816-99.884,1493.99-105.49,1497.494z M-103.634,1811.883c-3.454,0.08-6.876,0.143-10.267,0.189l0.054,4
			c3.403-0.047,6.838-0.109,10.304-0.189c3.21-0.072,6.468-0.289,9.684-0.645l-0.438-3.977
			C-97.398,1811.604-100.54,1811.813-103.634,1811.883z M-127.076,1514.041c-3.852,3.58-6.554,7.064-8.263,10.652l3.611,1.721
			c1.467-3.082,3.948-6.258,7.375-9.441c1.687-1.568,3.433-3.113,5.189-4.592l-2.576-3.061
			C-123.546,1510.842-125.342,1512.43-127.076,1514.041z M-130.77,1543.701l-3.58,1.783c2.704,5.428,6.872,10.809,11.285,16.508
			l0.13,0.168l3.162-2.451l-0.13-0.166C-124.191,1554.004-128.242,1548.775-130.77,1543.701z M-153.621,1815.713
			c6.324,0.225,13.016,0.367,19.892,0.422l0.032-4c-6.839-0.055-13.495-0.197-19.782-0.42L-153.621,1815.713z M-140.773,1657.031
			l1.367,3.76c6.831-2.484,12.601-5.871,17.639-10.355l-2.659-2.988C-129.079,1651.588-134.427,1654.725-140.773,1657.031z
			 M38.814,1320.121c-1.153-0.881-2.299-1.775-3.437-2.68l-2.49,3.129c1.157,0.922,2.324,1.832,3.498,2.73
			c4.032,3.076,8.44,5.984,13.104,8.641l1.98-3.477C46.96,1325.896,42.702,1323.09,38.814,1320.121z M338.18,1211.566l0.057,4
			c7.156-0.1,13.962-1.051,20.228-2.83l-1.092-3.846C351.444,1210.572,344.987,1211.471,338.18,1211.566z M342.734,960.877
			l0.256,3.992c7.303-0.469,13.798-0.348,19.56,0.361l0.488-3.971C357.027,960.523,350.285,960.393,342.734,960.877z
			 M374.846,1200.844l2.223,3.326c5.487-3.668,10.582-8.291,15.144-13.736l-3.066-2.57
			C384.828,1193.02,380.017,1197.387,374.846,1200.844z M261.072,1193.984c6.323,3.068,12.498,5.836,18.353,8.229l1.514-3.703
			c-5.776-2.359-11.873-5.094-18.12-8.125L261.072,1193.984z M298.38,1209.051c6.82,2.104,13.426,3.717,19.634,4.795l0.686-3.939
			c-6.042-1.051-12.481-2.623-19.14-4.678L298.38,1209.051z M263.853,974.795l0.768,3.926c6.828-1.334,13.426-2.701,19.599-3.986
			l-0.816-3.916C277.243,972.102,270.659,973.465,263.853,974.795z M302.987,966.787l0.781,3.924
			c7.743-1.541,13.963-2.672,19.574-3.555l-0.623-3.951C317.054,964.096,310.783,965.234,302.987,966.787z M413.35,1134.66
			l3.887,0.947c1.504-6.166,2.847-12.797,3.991-19.707l-3.946-0.656C416.154,1122.059,414.83,1128.59,413.35,1134.66z
			 M423.624,1075.762l-3.998,0.125c0.17,5.445,0.256,11.223,0.257,17.174c0,0.898-0.003,1.805-0.007,2.717l4,0.02
			c0.004-0.92,0.007-1.832,0.007-2.736C423.882,1087.068,423.795,1081.248,423.624,1075.762z M409.849,996.822l-3.648,1.641
			c2.436,5.412,4.566,11.646,6.333,18.527l3.875-0.994C414.584,1008.895,412.377,1002.443,409.849,996.822z M382.779,966.854
			l-1.758,3.594c5.758,2.814,10.666,6.619,15.008,11.635l3.023-2.619C394.352,974.035,389.029,969.908,382.779,966.854z
			 M399.923,1171.617l3.535,1.873c2.962-5.592,5.674-11.834,8.063-18.555l-3.77-1.34
			C405.428,1160.135,402.794,1166.197,399.923,1171.617z M206.759,1831.518c1.152,4.637,1.736,8.885,1.737,12.623
			c0,2.182-0.199,4.238-0.593,6.113l3.914,0.822c0.45-2.145,0.679-4.479,0.679-6.938c-0.001-4.063-0.625-8.633-1.854-13.586
			L206.759,1831.518z M67.619,1340.627c5.714,2.305,11.897,4.461,18.902,6.59l1.164-3.828c-6.892-2.094-12.966-4.211-18.57-6.471
			L67.619,1340.627z M126.556,2079.98c-1.042-2.367-2.131-4.697-3.236-6.932l-3.584,1.773c1.094,2.211,2.171,4.521,3.202,6.865
			l0.099,0.195c2.011,3.488,3.964,7.051,5.805,10.592l3.549-1.844C130.539,2087.07,128.577,2083.486,126.556,2079.98z
			 M100.222,2040.383l-2.775,2.881c4.45,4.287,8.646,9.258,12.472,14.771l3.287-2.281
			C109.23,2050.025,104.862,2044.854,100.222,2040.383z M108.869,1470.01c-5.882,0.963-12.265,1.625-19.512,2.027l0.221,3.994
			c7.392-0.41,13.913-1.088,19.938-2.074L108.869,1470.01z M81.106,1859.008c-7.606-1.17-13.86-2.08-19.683-2.865l-0.535,3.965
			c5.797,0.781,12.028,1.688,19.61,2.854L81.106,1859.008z M225.777,1174.867c6.015,3.551,11.884,6.885,17.444,9.91l1.912-3.512
			c-5.52-3.006-11.349-6.316-17.323-9.844L225.777,1174.867z M64.592,2023.369c6.526,2.342,12.269,5.018,17.557,8.182l2.055-3.432
			c-5.515-3.301-11.487-6.086-18.26-8.516L64.592,2023.369z M168.605,1763.064l-2.961,2.689c4.168,4.59,8.429,9.658,12.664,15.066
			l3.148-2.467C177.162,1772.871,172.838,1767.727,168.605,1763.064z M62.882,1732.066c6.479-2.586,12.561-4.342,18.594-5.367
			l-0.67-3.943c-6.315,1.074-12.663,2.904-19.406,5.596L62.882,1732.066z M244.257,978.361c-6.931,1.148-13.369,2.088-19.682,2.867
			l0.49,3.971c6.368-0.787,12.86-1.732,19.846-2.893L244.257,978.361z M179.104,1869.068l0.395,3.98
			c8.23-0.814,14.705-2.563,19.794-5.34l-1.918-3.512C192.767,1866.713,186.79,1868.307,179.104,1869.068z M201.957,1807.26
			c-2.89-4.447-5.803-8.775-8.658-12.863l-3.279,2.293c2.806,4.014,5.667,8.264,8.507,12.633c0.609,1.305,1.189,2.582,1.74,3.836
			l3.662-1.611c-0.582-1.322-1.193-2.67-1.838-4.045L201.957,1807.26z M-276.402,563.092c5.398,3.834,11.115,7.482,16.989,10.844
			l1.986-3.473c-5.762-3.297-11.367-6.873-16.659-10.631L-276.402,563.092z M-189.102-1945.933
			c6.294,1.531,12.866,2.986,19.533,4.327l0.788-3.922c-6.615-1.33-13.134-2.773-19.376-4.291L-189.102-1945.933z M-179.953-351.37
			l-0.987-3.877c-0.153,0.04-3.809,0.975-9.706,2.928l1.257,3.796C-183.639-350.426-179.99-351.361-179.953-351.37z
			 M-242.956-321.552l-2.421-3.185c-5.845,4.444-10.96,9.152-15.203,13.996l3.009,2.635
			C-253.505-312.747-248.588-317.271-242.956-321.552z M-153.477-1200.377c8.284,0,15-6.716,15-15s-6.716-15-15-15s-15,6.716-15,15
			S-161.761-1200.377-153.477-1200.377z M-138.072-2187.683l-2.323-3.255c-5.101,3.64-10.443,7.317-16.332,11.244l2.219,3.328
			C-148.584-2180.316-143.207-2184.018-138.072-2187.683z M-149.693-1245.229c1.672-5.8,4.074-11.902,7.139-18.134l-3.59-1.766
			c-3.168,6.442-5.655,12.765-7.393,18.792L-149.693-1245.229z M-254.182-873.389c5.837-2.259,11.979-4.434,18.255-6.463
			l-1.229-3.805c-6.348,2.052-12.563,4.25-18.471,6.538L-254.182-873.389z M-228.413,224.264c6.267-1.754,12.747-3.111,19.26-4.037
			l-0.563-3.959c-6.686,0.949-13.339,2.342-19.775,4.143L-228.413,224.264z M-208.172-341.358l-1.591-3.67
			c-6.495,2.815-12.68,5.868-18.383,9.074l1.96,3.487C-220.602-335.605-214.541-338.597-208.172-341.358z M-149.892-1938.02
			c6.544,1.074,13.205,2.053,19.796,2.909l0.515-3.967c-6.547-0.85-13.162-1.822-19.662-2.889L-149.892-1938.02z M-207.311-1954.947
			c-6.543-1.924-12.88-3.982-18.834-6.117l-1.351,3.765c6.027,2.162,12.438,4.244,19.056,6.19L-207.311-1954.947z
			 M-205.054-2144.481l-2.096-3.407c-5.159,3.172-11.148,6.86-16.934,10.472l2.118,3.393
			C-216.191-2137.628-210.209-2141.312-205.054-2144.481z M-217.332-885.348c6.104-1.645,12.443-3.204,18.843-4.631l-0.871-3.903
			c-6.456,1.44-12.853,3.013-19.013,4.673L-217.332-885.348z M-171.227-2165.497l-2.146-3.375c-5,3.181-10.351,6.533-16.84,10.552
			l2.106,3.4C-181.604-2158.947-176.24-2162.309-171.227-2165.497z M-25.7-1396.849l2.85,2.809
			c4.526-4.592,9.076-9.571,13.524-14.798l-3.047-2.592C-16.758-1406.278-21.242-1401.372-25.7-1396.849z M-132.808-1280.396
			c3.355-5.181,7.195-10.584,11.414-16.061l-3.169-2.441c-4.285,5.562-8.188,11.055-11.603,16.328L-132.808-1280.396z
			 M-38.161-2309.837l-3.732-1.44c-2.35,6.09-4.994,12.172-7.859,18.076l3.598,1.747
			C-43.241-2297.459-40.552-2303.644-38.161-2309.837z M-22.83-1086.466c4.807,4.875,9.147,9.845,12.898,14.767l3.182-2.426
			c-3.855-5.056-8.306-10.152-13.231-15.15L-22.83-1086.466z M-6.303,1275.686c-4.08-4.965-8.159-10.205-12.125-15.576l-3.218,2.375
			c4.007,5.428,8.13,10.723,12.253,15.74L-6.303,1275.686z M-1.834,1054.918c-7.14-0.709-13.94-1.016-20.171-0.906l0.072,4
			c6.08-0.111,12.721,0.193,19.704,0.887L-1.834,1054.918z M-26.477-2358.377c8.284,0,15-6.716,15-15s-6.716-15-15-15
			s-15,6.716-15,15S-34.761-2358.377-26.477-2358.377z M-55.646-2273.802l-3.441-2.037c-3.323,5.614-6.932,11.18-10.724,16.542
			l3.266,2.31C-62.691-2262.438-59.024-2268.095-55.646-2273.802z M-110.167-1932.887c3.657,0.335,5.858,0.489,6.343,0.522
			c0.648,0.097,5.492,0.84,13.19,2.469l0.828-3.914c-8.384-1.774-13.312-2.495-13.518-2.525l-0.158-0.016
			c-0.095-0.006-2.373-0.157-6.321-0.519L-110.167-1932.887z M-106.663-2212.414l-2.653-2.994
			c-4.66,4.128-9.776,8.377-15.207,12.629l2.466,3.149C-116.562-2203.931-111.383-2208.232-106.663-2212.414z M-51.125-1923.509
			c-6.318-2.023-12.779-3.918-19.203-5.632l-1.031,3.865c6.361,1.697,12.757,3.573,19.012,5.576L-51.125-1923.509z
			 M-78.758-2241.108l-3.072-2.561c-4.169,4.999-8.612,9.926-13.207,14.645l2.865,2.79
			C-87.506-2231.025-82.992-2236.029-78.758-2241.108z M-9.615,1475.885l-0.174-3.994c-7.079,0.307-13.591,0.785-19.91,1.459
			l0.425,3.979C-23.039,1476.662-16.609,1476.191-9.615,1475.885z M-351.838,405.914c0-6.031,0.267-12.156,0.792-18.201
			l-3.985-0.348c-0.535,6.16-0.807,12.402-0.807,18.549c0,0.529,0.002,1.059,0.006,1.588l4-0.029
			C-351.836,406.953-351.838,406.434-351.838,405.914z M-354.714,427.627c0.699,6.695,1.734,13.4,3.078,19.922l3.918-0.809
			c-1.317-6.393-2.333-12.963-3.018-19.529L-354.714,427.627z M-363.717-750.229c0.212,6.487,1.101,13.102,2.643,19.662l3.894-0.915
			c-1.481-6.303-2.335-12.654-2.539-18.878L-363.717-750.229z M-353.069-787.625l-3.716-1.479
			c-2.489,6.256-4.336,12.672-5.489,19.07l3.936,0.709C-357.232-775.46-355.459-781.618-353.069-787.625z M-352.352,367.396
			l3.936,0.715c1.175-6.471,2.669-12.955,4.436-19.273l-3.852-1.078C-349.634,354.197-351.154,360.803-352.352,367.396z
			 M-345.868-694.185l3.428-2.061c-3.4-5.656-6.344-11.402-8.752-17.08l-3.683,1.562C-352.394-705.915-349.364-700-345.868-694.185z
			 M-346.562,467.061c2.029,6.42,4.411,12.771,7.082,18.879l3.666-1.602c-2.614-5.979-4.947-12.197-6.933-18.482L-346.562,467.061z
			 M-303.681,533.771l-2.949,2.701c4.504,4.918,9.354,9.666,14.412,14.113l2.642-3.002
			C-294.528,543.23-299.273,538.584-303.681,533.771z M-330.413,503.947c3.341,5.822,7.04,11.516,10.993,16.92l3.229-2.361
			c-3.866-5.287-7.483-10.855-10.752-16.549L-330.413,503.947z M-268.316-291.699l-3.648-1.639
			c-2.924,6.509-4.579,13.34-4.919,20.303l3.995,0.196C-272.572-279.302-271.033-285.647-268.316-291.699z M-297.57-646.101
			c-0.03-0.022-3.015-2.23-7.593-6.239l-2.636,3.009c4.719,4.132,7.729,6.357,7.855,6.45L-297.57-646.101z M-323.438,292.648
			l3.377,2.145c3.55-5.592,7.401-11.004,11.446-16.082l-3.129-2.492C-315.877,281.41-319.811,286.936-323.438,292.648z
			 M-298.309,261.164l2.827,2.83c4.679-4.676,9.64-9.074,14.746-13.076l-2.468-3.148
			C-288.436,251.869-293.518,256.377-298.309,261.164z M-271.015-2100.473l-2.496-3.126c-5.802,4.633-10.732,8.98-15.073,13.291
			l2.818,2.838C-281.529-2091.677-276.703-2095.931-271.015-2100.473z M-333.257-820.259l-3.083-2.547
			c-4.338,5.252-8.215,10.645-11.522,16.029l3.408,2.094C-341.244-809.91-337.477-815.15-333.257-820.259z M-280.871-1984.937
			l2.456-3.158c-5.442-4.233-10.188-8.723-14.107-13.343l-3.051,2.586C-291.476-1994.02-286.53-1989.339-280.871-1984.937z
			 M-305.505-2056.839c1.256-5.129,3.689-10.43,7.231-15.759l-3.331-2.214c-3.8,5.715-6.419,11.442-7.786,17.021
			c-0.142,0.576-0.276,1.15-0.402,1.723l3.905,0.865C-305.766-2055.746-305.639-2056.292-305.505-2056.839z M-244.497-1968.396
			c-6.296-2.805-12.215-5.787-17.593-8.863l-1.985,3.472c5.493,3.142,11.533,6.185,17.95,9.044L-244.497-1968.396z
			 M-238.723-2123.366l-2.183-3.353c-6.16,4.01-11.576,7.66-16.557,11.161l2.3,3.273
			C-250.221-2115.757-244.844-2119.382-238.723-2123.366z M-289.168-856.961c5.392-3.073,11.172-6.052,17.178-8.855l-1.692-3.625
			c-6.104,2.849-11.979,5.878-17.466,9.004L-289.168-856.961z M-337.763,330.068c2.372-6.164,5.056-12.25,7.979-18.082l-3.577-1.793
			c-2.98,5.949-5.718,12.154-8.136,18.438L-337.763,330.068z M-321.929-662.966l2.91-2.745c-4.484-4.753-8.702-9.685-12.538-14.657
			l-3.167,2.441C-330.807-672.849-326.502-667.816-321.929-662.966z M-313.677-840.399c2.612-2.11,5.379-4.203,8.226-6.224
			l-2.315-3.261c-2.914,2.067-5.749,4.211-8.497,6.435c-2.304,2.048-4.554,4.137-6.689,6.207l2.785,2.871
			C-318.074-836.401-315.866-838.45-313.677-840.399z M-274.252-252.32c2.132,6.891,5.736,12.724,11.018,17.831l2.78-2.875
			c-4.786-4.627-8.049-9.907-9.977-16.138L-274.252-252.32z M-302.792-2017.624c-2.572-5.865-4.12-12.067-4.603-18.435l-3.988,0.302
			c0.517,6.819,2.175,13.46,4.928,19.739L-302.792-2017.624z M164.818,2256.203c-3.104,4.898-5.414,13.041-12.287,15.268
			c-3.389-6.041-2.813-12.369-4.737-18.516c-3.063-0.221-4.774,3.568-7.784,5.994c-4.271,3.445-9.628,4.232-9.254,8.66
			c5.147,3.953,10.595,3.748,15.664,8.775c-2.997-1.145-5.408,1.885-9.571,4.209c-4.795,2.678-6.342,3.084-7.188,6.592
			c2.954,3.377,5.061,8.268,8.508,10.57c4.914-4.328,6.379-13.781,12.427-17.197c5.092,5.176,4.493,10.758,5.22,16.242
			c4.645,0.838,11.63-7.924,15.475-10.705c-3.036-3.697-10.688-5.389-13.691-9.559c3.421-1.658,4.92-3.689,8.977-4.803
			c2.494-0.684,7.689,0.977,9.342-0.994C179.394,2266.586,168.156,2256.455,164.818,2256.203z"/>
	</g>
</g>
</svg>
